-------------------------------------------------------------------------------
Test set: com.cloudcomputing.backend.BackendApplicationTests
-------------------------------------------------------------------------------
Tests run: 1, Failures: 0, Errors: 0, Skipped: 0, Time elapsed: 11.069 s - in com.cloudcomputing.backend.BackendApplicationTests
