<?xml version="1.0" encoding="UTF-8"?>
<testsuite xmlns:xsi="http://www.w3.org/2001/XMLSchema-instance" xsi:noNamespaceSchemaLocation="https://maven.apache.org/surefire/maven-surefire-plugin/xsd/surefire-test-report.xsd" name="com.cloudcomputing.backend.BackendApplicationTests" time="11.069" tests="1" errors="0" skipped="0" failures="0">
  <properties>
    <property name="sun.desktop" value="windows"/>
    <property name="awt.toolkit" value="sun.awt.windows.WToolkit"/>
    <property name="java.specification.version" value="11"/>
    <property name="sun.cpu.isalist" value="amd64"/>
    <property name="sun.jnu.encoding" value="Cp1252"/>
    <property name="java.class.path" value="E:\InformationTechnology\Nam_4Ky_1\DienToanDamMay\20211119_Project\cloudcomputing\backend\target\test-classes;E:\InformationTechnology\Nam_4Ky_1\DienToanDamMay\20211119_Project\cloudcomputing\backend\target\classes;C:\Users\Nghia\.m2\repository\org\springframework\boot\spring-boot-starter-web\2.5.6\spring-boot-starter-web-2.5.6.jar;C:\Users\Nghia\.m2\repository\org\springframework\boot\spring-boot-starter\2.5.6\spring-boot-starter-2.5.6.jar;C:\Users\Nghia\.m2\repository\org\springframework\boot\spring-boot\2.5.6\spring-boot-2.5.6.jar;C:\Users\Nghia\.m2\repository\org\springframework\boot\spring-boot-autoconfigure\2.5.6\spring-boot-autoconfigure-2.5.6.jar;C:\Users\Nghia\.m2\repository\org\springframework\boot\spring-boot-starter-logging\2.5.6\spring-boot-starter-logging-2.5.6.jar;C:\Users\Nghia\.m2\repository\ch\qos\logback\logback-classic\1.2.6\logback-classic-1.2.6.jar;C:\Users\Nghia\.m2\repository\ch\qos\logback\logback-core\1.2.6\logback-core-1.2.6.jar;C:\Users\Nghia\.m2\repository\org\apache\logging\log4j\log4j-to-slf4j\2.14.1\log4j-to-slf4j-2.14.1.jar;C:\Users\Nghia\.m2\repository\org\apache\logging\log4j\log4j-api\2.14.1\log4j-api-2.14.1.jar;C:\Users\Nghia\.m2\repository\org\slf4j\jul-to-slf4j\1.7.32\jul-to-slf4j-1.7.32.jar;C:\Users\Nghia\.m2\repository\jakarta\annotation\jakarta.annotation-api\1.3.5\jakarta.annotation-api-1.3.5.jar;C:\Users\Nghia\.m2\repository\org\yaml\snakeyaml\1.28\snakeyaml-1.28.jar;C:\Users\Nghia\.m2\repository\org\springframework\boot\spring-boot-starter-json\2.5.6\spring-boot-starter-json-2.5.6.jar;C:\Users\Nghia\.m2\repository\com\fasterxml\jackson\core\jackson-databind\2.12.5\jackson-databind-2.12.5.jar;C:\Users\Nghia\.m2\repository\com\fasterxml\jackson\core\jackson-annotations\2.12.5\jackson-annotations-2.12.5.jar;C:\Users\Nghia\.m2\repository\com\fasterxml\jackson\core\jackson-core\2.12.5\jackson-core-2.12.5.jar;C:\Users\Nghia\.m2\repository\com\fasterxml\jackson\datatype\jackson-datatype-jdk8\2.12.5\jackson-datatype-jdk8-2.12.5.jar;C:\Users\Nghia\.m2\repository\com\fasterxml\jackson\datatype\jackson-datatype-jsr310\2.12.5\jackson-datatype-jsr310-2.12.5.jar;C:\Users\Nghia\.m2\repository\com\fasterxml\jackson\module\jackson-module-parameter-names\2.12.5\jackson-module-parameter-names-2.12.5.jar;C:\Users\Nghia\.m2\repository\org\springframework\boot\spring-boot-starter-tomcat\2.5.6\spring-boot-starter-tomcat-2.5.6.jar;C:\Users\Nghia\.m2\repository\org\apache\tomcat\embed\tomcat-embed-core\9.0.54\tomcat-embed-core-9.0.54.jar;C:\Users\Nghia\.m2\repository\org\apache\tomcat\embed\tomcat-embed-el\9.0.54\tomcat-embed-el-9.0.54.jar;C:\Users\Nghia\.m2\repository\org\apache\tomcat\embed\tomcat-embed-websocket\9.0.54\tomcat-embed-websocket-9.0.54.jar;C:\Users\Nghia\.m2\repository\org\springframework\spring-web\5.3.12\spring-web-5.3.12.jar;C:\Users\Nghia\.m2\repository\org\springframework\spring-beans\5.3.12\spring-beans-5.3.12.jar;C:\Users\Nghia\.m2\repository\org\springframework\spring-webmvc\5.3.12\spring-webmvc-5.3.12.jar;C:\Users\Nghia\.m2\repository\org\springframework\spring-aop\5.3.12\spring-aop-5.3.12.jar;C:\Users\Nghia\.m2\repository\org\springframework\spring-context\5.3.12\spring-context-5.3.12.jar;C:\Users\Nghia\.m2\repository\org\springframework\spring-expression\5.3.12\spring-expression-5.3.12.jar;C:\Users\Nghia\.m2\repository\org\springframework\boot\spring-boot-starter-test\2.5.6\spring-boot-starter-test-2.5.6.jar;C:\Users\Nghia\.m2\repository\org\springframework\boot\spring-boot-test\2.5.6\spring-boot-test-2.5.6.jar;C:\Users\Nghia\.m2\repository\org\springframework\boot\spring-boot-test-autoconfigure\2.5.6\spring-boot-test-autoconfigure-2.5.6.jar;C:\Users\Nghia\.m2\repository\com\jayway\jsonpath\json-path\2.5.0\json-path-2.5.0.jar;C:\Users\Nghia\.m2\repository\net\minidev\json-smart\2.4.7\json-smart-2.4.7.jar;C:\Users\Nghia\.m2\repository\net\minidev\accessors-smart\2.4.7\accessors-smart-2.4.7.jar;C:\Users\Nghia\.m2\repository\org\ow2\asm\asm\9.1\asm-9.1.jar;C:\Users\Nghia\.m2\repository\org\slf4j\slf4j-api\1.7.32\slf4j-api-1.7.32.jar;C:\Users\Nghia\.m2\repository\jakarta\xml\bind\jakarta.xml.bind-api\2.3.3\jakarta.xml.bind-api-2.3.3.jar;C:\Users\Nghia\.m2\repository\jakarta\activation\jakarta.activation-api\1.2.2\jakarta.activation-api-1.2.2.jar;C:\Users\Nghia\.m2\repository\org\assertj\assertj-core\3.19.0\assertj-core-3.19.0.jar;C:\Users\Nghia\.m2\repository\org\hamcrest\hamcrest\2.2\hamcrest-2.2.jar;C:\Users\Nghia\.m2\repository\org\junit\jupiter\junit-jupiter\5.7.2\junit-jupiter-5.7.2.jar;C:\Users\Nghia\.m2\repository\org\junit\jupiter\junit-jupiter-api\5.7.2\junit-jupiter-api-5.7.2.jar;C:\Users\Nghia\.m2\repository\org\apiguardian\apiguardian-api\1.1.0\apiguardian-api-1.1.0.jar;C:\Users\Nghia\.m2\repository\org\opentest4j\opentest4j\1.2.0\opentest4j-1.2.0.jar;C:\Users\Nghia\.m2\repository\org\junit\platform\junit-platform-commons\1.7.2\junit-platform-commons-1.7.2.jar;C:\Users\Nghia\.m2\repository\org\junit\jupiter\junit-jupiter-params\5.7.2\junit-jupiter-params-5.7.2.jar;C:\Users\Nghia\.m2\repository\org\junit\jupiter\junit-jupiter-engine\5.7.2\junit-jupiter-engine-5.7.2.jar;C:\Users\Nghia\.m2\repository\org\junit\platform\junit-platform-engine\1.7.2\junit-platform-engine-1.7.2.jar;C:\Users\Nghia\.m2\repository\org\mockito\mockito-core\3.9.0\mockito-core-3.9.0.jar;C:\Users\Nghia\.m2\repository\net\bytebuddy\byte-buddy\1.10.22\byte-buddy-1.10.22.jar;C:\Users\Nghia\.m2\repository\net\bytebuddy\byte-buddy-agent\1.10.22\byte-buddy-agent-1.10.22.jar;C:\Users\Nghia\.m2\repository\org\objenesis\objenesis\3.2\objenesis-3.2.jar;C:\Users\Nghia\.m2\repository\org\mockito\mockito-junit-jupiter\3.9.0\mockito-junit-jupiter-3.9.0.jar;C:\Users\Nghia\.m2\repository\org\skyscreamer\jsonassert\1.5.0\jsonassert-1.5.0.jar;C:\Users\Nghia\.m2\repository\com\vaadin\external\google\android-json\0.0.20131108.vaadin1\android-json-0.0.20131108.vaadin1.jar;C:\Users\Nghia\.m2\repository\org\springframework\spring-core\5.3.12\spring-core-5.3.12.jar;C:\Users\Nghia\.m2\repository\org\springframework\spring-jcl\5.3.12\spring-jcl-5.3.12.jar;C:\Users\Nghia\.m2\repository\org\springframework\spring-test\5.3.12\spring-test-5.3.12.jar;C:\Users\Nghia\.m2\repository\org\xmlunit\xmlunit-core\2.8.3\xmlunit-core-2.8.3.jar;C:\Users\Nghia\.m2\repository\org\springframework\boot\spring-boot-starter-data-jpa\2.5.6\spring-boot-starter-data-jpa-2.5.6.jar;C:\Users\Nghia\.m2\repository\org\springframework\boot\spring-boot-starter-aop\2.5.6\spring-boot-starter-aop-2.5.6.jar;C:\Users\Nghia\.m2\repository\org\aspectj\aspectjweaver\1.9.7\aspectjweaver-1.9.7.jar;C:\Users\Nghia\.m2\repository\org\springframework\boot\spring-boot-starter-jdbc\2.5.6\spring-boot-starter-jdbc-2.5.6.jar;C:\Users\Nghia\.m2\repository\com\zaxxer\HikariCP\4.0.3\HikariCP-4.0.3.jar;C:\Users\Nghia\.m2\repository\org\springframework\spring-jdbc\5.3.12\spring-jdbc-5.3.12.jar;C:\Users\Nghia\.m2\repository\jakarta\transaction\jakarta.transaction-api\1.3.3\jakarta.transaction-api-1.3.3.jar;C:\Users\Nghia\.m2\repository\jakarta\persistence\jakarta.persistence-api\2.2.3\jakarta.persistence-api-2.2.3.jar;C:\Users\Nghia\.m2\repository\org\hibernate\hibernate-core\5.4.32.Final\hibernate-core-5.4.32.Final.jar;C:\Users\Nghia\.m2\repository\org\jboss\logging\jboss-logging\3.4.2.Final\jboss-logging-3.4.2.Final.jar;C:\Users\Nghia\.m2\repository\org\javassist\javassist\3.27.0-GA\javassist-3.27.0-GA.jar;C:\Users\Nghia\.m2\repository\antlr\antlr\2.7.7\antlr-2.7.7.jar;C:\Users\Nghia\.m2\repository\org\jboss\jandex\2.2.3.Final\jandex-2.2.3.Final.jar;C:\Users\Nghia\.m2\repository\com\fasterxml\classmate\1.5.1\classmate-1.5.1.jar;C:\Users\Nghia\.m2\repository\org\dom4j\dom4j\2.1.3\dom4j-2.1.3.jar;C:\Users\Nghia\.m2\repository\org\hibernate\common\hibernate-commons-annotations\5.1.2.Final\hibernate-commons-annotations-5.1.2.Final.jar;C:\Users\Nghia\.m2\repository\org\glassfish\jaxb\jaxb-runtime\2.3.5\jaxb-runtime-2.3.5.jar;C:\Users\Nghia\.m2\repository\org\glassfish\jaxb\txw2\2.3.5\txw2-2.3.5.jar;C:\Users\Nghia\.m2\repository\com\sun\istack\istack-commons-runtime\3.0.12\istack-commons-runtime-3.0.12.jar;C:\Users\Nghia\.m2\repository\com\sun\activation\jakarta.activation\1.2.2\jakarta.activation-1.2.2.jar;C:\Users\Nghia\.m2\repository\org\springframework\data\spring-data-jpa\2.5.6\spring-data-jpa-2.5.6.jar;C:\Users\Nghia\.m2\repository\org\springframework\data\spring-data-commons\2.5.6\spring-data-commons-2.5.6.jar;C:\Users\Nghia\.m2\repository\org\springframework\spring-orm\5.3.12\spring-orm-5.3.12.jar;C:\Users\Nghia\.m2\repository\org\springframework\spring-tx\5.3.12\spring-tx-5.3.12.jar;C:\Users\Nghia\.m2\repository\org\springframework\spring-aspects\5.3.12\spring-aspects-5.3.12.jar;C:\Users\Nghia\.m2\repository\mysql\mysql-connector-java\8.0.27\mysql-connector-java-8.0.27.jar;C:\Users\Nghia\.m2\repository\com\amazonaws\aws-java-sdk\1.12.70\aws-java-sdk-1.12.70.jar;C:\Users\Nghia\.m2\repository\com\amazonaws\aws-java-sdk-kafkaconnect\1.12.70\aws-java-sdk-kafkaconnect-1.12.70.jar;C:\Users\Nghia\.m2\repository\com\amazonaws\jmespath-java\1.12.70\jmespath-java-1.12.70.jar;C:\Users\Nghia\.m2\repository\com\amazonaws\aws-java-sdk-opensearch\1.12.70\aws-java-sdk-opensearch-1.12.70.jar;C:\Users\Nghia\.m2\repository\com\amazonaws\aws-java-sdk-memorydb\1.12.70\aws-java-sdk-memorydb-1.12.70.jar;C:\Users\Nghia\.m2\repository\com\amazonaws\aws-java-sdk-snowdevicemanagement\1.12.70\aws-java-sdk-snowdevicemanagement-1.12.70.jar;C:\Users\Nghia\.m2\repository\com\amazonaws\aws-java-sdk-chimesdkidentity\1.12.70\aws-java-sdk-chimesdkidentity-1.12.70.jar;C:\Users\Nghia\.m2\repository\com\amazonaws\aws-java-sdk-chimesdkmessaging\1.12.70\aws-java-sdk-chimesdkmessaging-1.12.70.jar;C:\Users\Nghia\.m2\repository\com\amazonaws\aws-java-sdk-route53recoverycluster\1.12.70\aws-java-sdk-route53recoverycluster-1.12.70.jar;C:\Users\Nghia\.m2\repository\com\amazonaws\aws-java-sdk-route53recoverycontrolconfig\1.12.70\aws-java-sdk-route53recoverycontrolconfig-1.12.70.jar;C:\Users\Nghia\.m2\repository\com\amazonaws\aws-java-sdk-route53recoveryreadiness\1.12.70\aws-java-sdk-route53recoveryreadiness-1.12.70.jar;C:\Users\Nghia\.m2\repository\com\amazonaws\aws-java-sdk-proton\1.12.70\aws-java-sdk-proton-1.12.70.jar;C:\Users\Nghia\.m2\repository\com\amazonaws\aws-java-sdk-apprunner\1.12.70\aws-java-sdk-apprunner-1.12.70.jar;C:\Users\Nghia\.m2\repository\com\amazonaws\aws-java-sdk-applicationcostprofiler\1.12.70\aws-java-sdk-applicationcostprofiler-1.12.70.jar;C:\Users\Nghia\.m2\repository\com\amazonaws\aws-java-sdk-ssmcontacts\1.12.70\aws-java-sdk-ssmcontacts-1.12.70.jar;C:\Users\Nghia\.m2\repository\com\amazonaws\aws-java-sdk-ssmincidents\1.12.70\aws-java-sdk-ssmincidents-1.12.70.jar;C:\Users\Nghia\.m2\repository\com\amazonaws\aws-java-sdk-finspacedata\1.12.70\aws-java-sdk-finspacedata-1.12.70.jar;C:\Users\Nghia\.m2\repository\com\amazonaws\aws-java-sdk-finspace\1.12.70\aws-java-sdk-finspace-1.12.70.jar;C:\Users\Nghia\.m2\repository\com\amazonaws\aws-java-sdk-nimblestudio\1.12.70\aws-java-sdk-nimblestudio-1.12.70.jar;C:\Users\Nghia\.m2\repository\com\amazonaws\aws-java-sdk-lookoutequipment\1.12.70\aws-java-sdk-lookoutequipment-1.12.70.jar;C:\Users\Nghia\.m2\repository\com\amazonaws\aws-java-sdk-mgn\1.12.70\aws-java-sdk-mgn-1.12.70.jar;C:\Users\Nghia\.m2\repository\com\amazonaws\aws-java-sdk-lookoutmetrics\1.12.70\aws-java-sdk-lookoutmetrics-1.12.70.jar;C:\Users\Nghia\.m2\repository\com\amazonaws\aws-java-sdk-fis\1.12.70\aws-java-sdk-fis-1.12.70.jar;C:\Users\Nghia\.m2\repository\com\amazonaws\aws-java-sdk-lexmodelsv2\1.12.70\aws-java-sdk-lexmodelsv2-1.12.70.jar;C:\Users\Nghia\.m2\repository\com\amazonaws\aws-java-sdk-lexruntimev2\1.12.70\aws-java-sdk-lexruntimev2-1.12.70.jar;C:\Users\Nghia\.m2\repository\com\amazonaws\aws-java-sdk-wellarchitected\1.12.70\aws-java-sdk-wellarchitected-1.12.70.jar;C:\Users\Nghia\.m2\repository\com\amazonaws\aws-java-sdk-location\1.12.70\aws-java-sdk-location-1.12.70.jar;C:\Users\Nghia\.m2\repository\com\amazonaws\aws-java-sdk-iotdeviceadvisor\1.12.70\aws-java-sdk-iotdeviceadvisor-1.12.70.jar;C:\Users\Nghia\.m2\repository\com\amazonaws\aws-java-sdk-iotfleethub\1.12.70\aws-java-sdk-iotfleethub-1.12.70.jar;C:\Users\Nghia\.m2\repository\com\amazonaws\aws-java-sdk-iotwireless\1.12.70\aws-java-sdk-iotwireless-1.12.70.jar;C:\Users\Nghia\.m2\repository\com\amazonaws\aws-java-sdk-greengrassv2\1.12.70\aws-java-sdk-greengrassv2-1.12.70.jar;C:\Users\Nghia\.m2\repository\com\amazonaws\aws-java-sdk-prometheus\1.12.70\aws-java-sdk-prometheus-1.12.70.jar;C:\Users\Nghia\.m2\repository\com\amazonaws\aws-java-sdk-auditmanager\1.12.70\aws-java-sdk-auditmanager-1.12.70.jar;C:\Users\Nghia\.m2\repository\com\amazonaws\aws-java-sdk-healthlake\1.12.70\aws-java-sdk-healthlake-1.12.70.jar;C:\Users\Nghia\.m2\repository\com\amazonaws\aws-java-sdk-sagemakeredgemanager\1.12.70\aws-java-sdk-sagemakeredgemanager-1.12.70.jar;C:\Users\Nghia\.m2\repository\com\amazonaws\aws-java-sdk-emrcontainers\1.12.70\aws-java-sdk-emrcontainers-1.12.70.jar;C:\Users\Nghia\.m2\repository\com\amazonaws\aws-java-sdk-customerprofiles\1.12.70\aws-java-sdk-customerprofiles-1.12.70.jar;C:\Users\Nghia\.m2\repository\com\amazonaws\aws-java-sdk-lookoutforvision\1.12.70\aws-java-sdk-lookoutforvision-1.12.70.jar;C:\Users\Nghia\.m2\repository\com\amazonaws\aws-java-sdk-connectcontactlens\1.12.70\aws-java-sdk-connectcontactlens-1.12.70.jar;C:\Users\Nghia\.m2\repository\com\amazonaws\aws-java-sdk-amplifybackend\1.12.70\aws-java-sdk-amplifybackend-1.12.70.jar;C:\Users\Nghia\.m2\repository\com\amazonaws\aws-java-sdk-ecrpublic\1.12.70\aws-java-sdk-ecrpublic-1.12.70.jar;C:\Users\Nghia\.m2\repository\com\amazonaws\aws-java-sdk-appintegrations\1.12.70\aws-java-sdk-appintegrations-1.12.70.jar;C:\Users\Nghia\.m2\repository\com\amazonaws\aws-java-sdk-sagemakerfeaturestoreruntime\1.12.70\aws-java-sdk-sagemakerfeaturestoreruntime-1.12.70.jar;C:\Users\Nghia\.m2\repository\com\amazonaws\aws-java-sdk-devopsguru\1.12.70\aws-java-sdk-devopsguru-1.12.70.jar;C:\Users\Nghia\.m2\repository\com\amazonaws\aws-java-sdk-mwaa\1.12.70\aws-java-sdk-mwaa-1.12.70.jar;C:\Users\Nghia\.m2\repository\com\amazonaws\aws-java-sdk-networkfirewall\1.12.70\aws-java-sdk-networkfirewall-1.12.70.jar;C:\Users\Nghia\.m2\repository\com\amazonaws\aws-java-sdk-appregistry\1.12.70\aws-java-sdk-appregistry-1.12.70.jar;C:\Users\Nghia\.m2\repository\com\amazonaws\aws-java-sdk-gluedatabrew\1.12.70\aws-java-sdk-gluedatabrew-1.12.70.jar;C:\Users\Nghia\.m2\repository\com\amazonaws\aws-java-sdk-s3outposts\1.12.70\aws-java-sdk-s3outposts-1.12.70.jar;C:\Users\Nghia\.m2\repository\com\amazonaws\aws-java-sdk-timestreamquery\1.12.70\aws-java-sdk-timestreamquery-1.12.70.jar;C:\Users\Nghia\.m2\repository\com\amazonaws\aws-java-sdk-timestreamwrite\1.12.70\aws-java-sdk-timestreamwrite-1.12.70.jar;C:\Users\Nghia\.m2\repository\com\amazonaws\aws-java-sdk-ssoadmin\1.12.70\aws-java-sdk-ssoadmin-1.12.70.jar;C:\Users\Nghia\.m2\repository\com\amazonaws\aws-java-sdk-redshiftdataapi\1.12.70\aws-java-sdk-redshiftdataapi-1.12.70.jar;C:\Users\Nghia\.m2\repository\com\amazonaws\aws-java-sdk-appflow\1.12.70\aws-java-sdk-appflow-1.12.70.jar;C:\Users\Nghia\.m2\repository\com\amazonaws\aws-java-sdk-identitystore\1.12.70\aws-java-sdk-identitystore-1.12.70.jar;C:\Users\Nghia\.m2\repository\com\amazonaws\aws-java-sdk-braket\1.12.70\aws-java-sdk-braket-1.12.70.jar;C:\Users\Nghia\.m2\repository\com\amazonaws\aws-java-sdk-ivs\1.12.70\aws-java-sdk-ivs-1.12.70.jar;C:\Users\Nghia\.m2\repository\com\amazonaws\aws-java-sdk-honeycode\1.12.70\aws-java-sdk-honeycode-1.12.70.jar;C:\Users\Nghia\.m2\repository\com\amazonaws\aws-java-sdk-codeartifact\1.12.70\aws-java-sdk-codeartifact-1.12.70.jar;C:\Users\Nghia\.m2\repository\com\amazonaws\aws-java-sdk-macie2\1.12.70\aws-java-sdk-macie2-1.12.70.jar;C:\Users\Nghia\.m2\repository\com\amazonaws\aws-java-sdk-iotsitewise\1.12.70\aws-java-sdk-iotsitewise-1.12.70.jar;C:\Users\Nghia\.m2\repository\com\amazonaws\aws-java-sdk-synthetics\1.12.70\aws-java-sdk-synthetics-1.12.70.jar;C:\Users\Nghia\.m2\repository\com\amazonaws\aws-java-sdk-codestarconnections\1.12.70\aws-java-sdk-codestarconnections-1.12.70.jar;C:\Users\Nghia\.m2\repository\com\amazonaws\aws-java-sdk-detective\1.12.70\aws-java-sdk-detective-1.12.70.jar;C:\Users\Nghia\.m2\repository\com\amazonaws\aws-java-sdk-kinesisvideosignalingchannels\1.12.70\aws-java-sdk-kinesisvideosignalingchannels-1.12.70.jar;C:\Users\Nghia\.m2\repository\com\amazonaws\aws-java-sdk-ebs\1.12.70\aws-java-sdk-ebs-1.12.70.jar;C:\Users\Nghia\.m2\repository\com\amazonaws\aws-java-sdk-augmentedairuntime\1.12.70\aws-java-sdk-augmentedairuntime-1.12.70.jar;C:\Users\Nghia\.m2\repository\com\amazonaws\aws-java-sdk-outposts\1.12.70\aws-java-sdk-outposts-1.12.70.jar;C:\Users\Nghia\.m2\repository\com\amazonaws\aws-java-sdk-codeguruprofiler\1.12.70\aws-java-sdk-codeguruprofiler-1.12.70.jar;C:\Users\Nghia\.m2\repository\com\amazonaws\aws-java-sdk-codegurureviewer\1.12.70\aws-java-sdk-codegurureviewer-1.12.70.jar;C:\Users\Nghia\.m2\repository\com\amazonaws\aws-java-sdk-frauddetector\1.12.70\aws-java-sdk-frauddetector-1.12.70.jar;C:\Users\Nghia\.m2\repository\com\amazonaws\aws-java-sdk-kendra\1.12.70\aws-java-sdk-kendra-1.12.70.jar;C:\Users\Nghia\.m2\repository\com\amazonaws\aws-java-sdk-networkmanager\1.12.70\aws-java-sdk-networkmanager-1.12.70.jar;C:\Users\Nghia\.m2\repository\com\amazonaws\aws-java-sdk-computeoptimizer\1.12.70\aws-java-sdk-computeoptimizer-1.12.70.jar;C:\Users\Nghia\.m2\repository\com\amazonaws\aws-java-sdk-accessanalyzer\1.12.70\aws-java-sdk-accessanalyzer-1.12.70.jar;C:\Users\Nghia\.m2\repository\com\amazonaws\aws-java-sdk-schemas\1.12.70\aws-java-sdk-schemas-1.12.70.jar;C:\Users\Nghia\.m2\repository\com\amazonaws\aws-java-sdk-imagebuilder\1.12.70\aws-java-sdk-imagebuilder-1.12.70.jar;C:\Users\Nghia\.m2\repository\com\amazonaws\aws-java-sdk-elasticinference\1.12.70\aws-java-sdk-elasticinference-1.12.70.jar;C:\Users\Nghia\.m2\repository\com\amazonaws\aws-java-sdk-iotsecuretunneling\1.12.70\aws-java-sdk-iotsecuretunneling-1.12.70.jar;C:\Users\Nghia\.m2\repository\com\amazonaws\aws-java-sdk-appconfig\1.12.70\aws-java-sdk-appconfig-1.12.70.jar;C:\Users\Nghia\.m2\repository\com\amazonaws\aws-java-sdk-wafv2\1.12.70\aws-java-sdk-wafv2-1.12.70.jar;C:\Users\Nghia\.m2\repository\com\amazonaws\aws-java-sdk-connectparticipant\1.12.70\aws-java-sdk-connectparticipant-1.12.70.jar;C:\Users\Nghia\.m2\repository\com\amazonaws\aws-java-sdk-migrationhubconfig\1.12.70\aws-java-sdk-migrationhubconfig-1.12.70.jar;C:\Users\Nghia\.m2\repository\com\amazonaws\aws-java-sdk-dataexchange\1.12.70\aws-java-sdk-dataexchange-1.12.70.jar;C:\Users\Nghia\.m2\repository\com\amazonaws\aws-java-sdk-sesv2\1.12.70\aws-java-sdk-sesv2-1.12.70.jar;C:\Users\Nghia\.m2\repository\com\amazonaws\aws-java-sdk-marketplacecatalog\1.12.70\aws-java-sdk-marketplacecatalog-1.12.70.jar;C:\Users\Nghia\.m2\repository\com\amazonaws\aws-java-sdk-ssooidc\1.12.70\aws-java-sdk-ssooidc-1.12.70.jar;C:\Users\Nghia\.m2\repository\com\amazonaws\aws-java-sdk-sso\1.12.70\aws-java-sdk-sso-1.12.70.jar;C:\Users\Nghia\.m2\repository\com\amazonaws\aws-java-sdk-savingsplans\1.12.70\aws-java-sdk-savingsplans-1.12.70.jar;C:\Users\Nghia\.m2\repository\com\amazonaws\aws-java-sdk-codestarnotifications\1.12.70\aws-java-sdk-codestarnotifications-1.12.70.jar;C:\Users\Nghia\.m2\repository\com\amazonaws\aws-java-sdk-workmailmessageflow\1.12.70\aws-java-sdk-workmailmessageflow-1.12.70.jar;C:\Users\Nghia\.m2\repository\com\amazonaws\aws-java-sdk-qldbsession\1.12.70\aws-java-sdk-qldbsession-1.12.70.jar;C:\Users\Nghia\.m2\repository\com\amazonaws\aws-java-sdk-qldb\1.12.70\aws-java-sdk-qldb-1.12.70.jar;C:\Users\Nghia\.m2\repository\com\amazonaws\aws-java-sdk-forecastquery\1.12.70\aws-java-sdk-forecastquery-1.12.70.jar;C:\Users\Nghia\.m2\repository\com\amazonaws\aws-java-sdk-forecast\1.12.70\aws-java-sdk-forecast-1.12.70.jar;C:\Users\Nghia\.m2\repository\com\amazonaws\aws-java-sdk-lakeformation\1.12.70\aws-java-sdk-lakeformation-1.12.70.jar;C:\Users\Nghia\.m2\repository\com\amazonaws\aws-java-sdk-eventbridge\1.12.70\aws-java-sdk-eventbridge-1.12.70.jar;C:\Users\Nghia\.m2\repository\com\amazonaws\aws-java-sdk-ec2instanceconnect\1.12.70\aws-java-sdk-ec2instanceconnect-1.12.70.jar;C:\Users\Nghia\.m2\repository\com\amazonaws\aws-java-sdk-applicationinsights\1.12.70\aws-java-sdk-applicationinsights-1.12.70.jar;C:\Users\Nghia\.m2\repository\com\amazonaws\aws-java-sdk-servicequotas\1.12.70\aws-java-sdk-servicequotas-1.12.70.jar;C:\Users\Nghia\.m2\repository\com\amazonaws\aws-java-sdk-personalizeevents\1.12.70\aws-java-sdk-personalizeevents-1.12.70.jar;C:\Users\Nghia\.m2\repository\com\amazonaws\aws-java-sdk-personalize\1.12.70\aws-java-sdk-personalize-1.12.70.jar;C:\Users\Nghia\.m2\repository\com\amazonaws\aws-java-sdk-personalizeruntime\1.12.70\aws-java-sdk-personalizeruntime-1.12.70.jar;C:\Users\Nghia\.m2\repository\com\amazonaws\aws-java-sdk-ioteventsdata\1.12.70\aws-java-sdk-ioteventsdata-1.12.70.jar;C:\Users\Nghia\.m2\repository\com\amazonaws\aws-java-sdk-iotevents\1.12.70\aws-java-sdk-iotevents-1.12.70.jar;C:\Users\Nghia\.m2\repository\com\amazonaws\aws-java-sdk-iotthingsgraph\1.12.70\aws-java-sdk-iotthingsgraph-1.12.70.jar;C:\Users\Nghia\.m2\repository\com\amazonaws\aws-java-sdk-groundstation\1.12.70\aws-java-sdk-groundstation-1.12.70.jar;C:\Users\Nghia\.m2\repository\com\amazonaws\aws-java-sdk-mediapackagevod\1.12.70\aws-java-sdk-mediapackagevod-1.12.70.jar;C:\Users\Nghia\.m2\repository\com\amazonaws\aws-java-sdk-managedblockchain\1.12.70\aws-java-sdk-managedblockchain-1.12.70.jar;C:\Users\Nghia\.m2\repository\com\amazonaws\aws-java-sdk-textract\1.12.70\aws-java-sdk-textract-1.12.70.jar;C:\Users\Nghia\.m2\repository\com\amazonaws\aws-java-sdk-worklink\1.12.70\aws-java-sdk-worklink-1.12.70.jar;C:\Users\Nghia\.m2\repository\com\amazonaws\aws-java-sdk-backup\1.12.70\aws-java-sdk-backup-1.12.70.jar;C:\Users\Nghia\.m2\repository\com\amazonaws\aws-java-sdk-docdb\1.12.70\aws-java-sdk-docdb-1.12.70.jar;C:\Users\Nghia\.m2\repository\com\amazonaws\aws-java-sdk-apigatewayv2\1.12.70\aws-java-sdk-apigatewayv2-1.12.70.jar;C:\Users\Nghia\.m2\repository\com\amazonaws\aws-java-sdk-apigatewaymanagementapi\1.12.70\aws-java-sdk-apigatewaymanagementapi-1.12.70.jar;C:\Users\Nghia\.m2\repository\com\amazonaws\aws-java-sdk-kafka\1.12.70\aws-java-sdk-kafka-1.12.70.jar;C:\Users\Nghia\.m2\repository\com\amazonaws\aws-java-sdk-appmesh\1.12.70\aws-java-sdk-appmesh-1.12.70.jar;C:\Users\Nghia\.m2\repository\com\amazonaws\aws-java-sdk-licensemanager\1.12.70\aws-java-sdk-licensemanager-1.12.70.jar;C:\Users\Nghia\.m2\repository\com\amazonaws\aws-java-sdk-securityhub\1.12.70\aws-java-sdk-securityhub-1.12.70.jar;C:\Users\Nghia\.m2\repository\com\amazonaws\aws-java-sdk-fsx\1.12.70\aws-java-sdk-fsx-1.12.70.jar;C:\Users\Nghia\.m2\repository\com\amazonaws\aws-java-sdk-mediaconnect\1.12.70\aws-java-sdk-mediaconnect-1.12.70.jar;C:\Users\Nghia\.m2\repository\com\amazonaws\aws-java-sdk-kinesisanalyticsv2\1.12.70\aws-java-sdk-kinesisanalyticsv2-1.12.70.jar;C:\Users\Nghia\.m2\repository\com\amazonaws\aws-java-sdk-comprehendmedical\1.12.70\aws-java-sdk-comprehendmedical-1.12.70.jar;C:\Users\Nghia\.m2\repository\com\amazonaws\aws-java-sdk-globalaccelerator\1.12.70\aws-java-sdk-globalaccelerator-1.12.70.jar;C:\Users\Nghia\.m2\repository\com\amazonaws\aws-java-sdk-transfer\1.12.70\aws-java-sdk-transfer-1.12.70.jar;C:\Users\Nghia\.m2\repository\com\amazonaws\aws-java-sdk-datasync\1.12.70\aws-java-sdk-datasync-1.12.70.jar;C:\Users\Nghia\.m2\repository\com\amazonaws\aws-java-sdk-robomaker\1.12.70\aws-java-sdk-robomaker-1.12.70.jar;C:\Users\Nghia\.m2\repository\com\amazonaws\aws-java-sdk-amplify\1.12.70\aws-java-sdk-amplify-1.12.70.jar;C:\Users\Nghia\.m2\repository\com\amazonaws\aws-java-sdk-quicksight\1.12.70\aws-java-sdk-quicksight-1.12.70.jar;C:\Users\Nghia\.m2\repository\com\amazonaws\aws-java-sdk-rdsdata\1.12.70\aws-java-sdk-rdsdata-1.12.70.jar;C:\Users\Nghia\.m2\repository\com\amazonaws\aws-java-sdk-route53resolver\1.12.70\aws-java-sdk-route53resolver-1.12.70.jar;C:\Users\Nghia\.m2\repository\com\amazonaws\aws-java-sdk-ram\1.12.70\aws-java-sdk-ram-1.12.70.jar;C:\Users\Nghia\.m2\repository\com\amazonaws\aws-java-sdk-s3control\1.12.70\aws-java-sdk-s3control-1.12.70.jar;C:\Users\Nghia\.m2\repository\com\amazonaws\aws-java-sdk-pinpointsmsvoice\1.12.70\aws-java-sdk-pinpointsmsvoice-1.12.70.jar;C:\Users\Nghia\.m2\repository\com\amazonaws\aws-java-sdk-pinpointemail\1.12.70\aws-java-sdk-pinpointemail-1.12.70.jar;C:\Users\Nghia\.m2\repository\com\amazonaws\aws-java-sdk-chime\1.12.70\aws-java-sdk-chime-1.12.70.jar;C:\Users\Nghia\.m2\repository\com\amazonaws\aws-java-sdk-signer\1.12.70\aws-java-sdk-signer-1.12.70.jar;C:\Users\Nghia\.m2\repository\com\amazonaws\aws-java-sdk-dlm\1.12.70\aws-java-sdk-dlm-1.12.70.jar;C:\Users\Nghia\.m2\repository\com\amazonaws\aws-java-sdk-macie\1.12.70\aws-java-sdk-macie-1.12.70.jar;C:\Users\Nghia\.m2\repository\com\amazonaws\aws-java-sdk-eks\1.12.70\aws-java-sdk-eks-1.12.70.jar;C:\Users\Nghia\.m2\repository\com\amazonaws\aws-java-sdk-mediatailor\1.12.70\aws-java-sdk-mediatailor-1.12.70.jar;C:\Users\Nghia\.m2\repository\com\amazonaws\aws-java-sdk-neptune\1.12.70\aws-java-sdk-neptune-1.12.70.jar;C:\Users\Nghia\.m2\repository\com\amazonaws\aws-java-sdk-pi\1.12.70\aws-java-sdk-pi-1.12.70.jar;C:\Users\Nghia\.m2\repository\com\amazonaws\aws-java-sdk-iot1clickprojects\1.12.70\aws-java-sdk-iot1clickprojects-1.12.70.jar;C:\Users\Nghia\.m2\repository\com\amazonaws\aws-java-sdk-iot1clickdevices\1.12.70\aws-java-sdk-iot1clickdevices-1.12.70.jar;C:\Users\Nghia\.m2\repository\com\amazonaws\aws-java-sdk-iotanalytics\1.12.70\aws-java-sdk-iotanalytics-1.12.70.jar;C:\Users\Nghia\.m2\repository\com\amazonaws\aws-java-sdk-acmpca\1.12.70\aws-java-sdk-acmpca-1.12.70.jar;C:\Users\Nghia\.m2\repository\com\amazonaws\aws-java-sdk-secretsmanager\1.12.70\aws-java-sdk-secretsmanager-1.12.70.jar;C:\Users\Nghia\.m2\repository\com\amazonaws\aws-java-sdk-fms\1.12.70\aws-java-sdk-fms-1.12.70.jar;C:\Users\Nghia\.m2\repository\com\amazonaws\aws-java-sdk-connect\1.12.70\aws-java-sdk-connect-1.12.70.jar;C:\Users\Nghia\.m2\repository\com\amazonaws\aws-java-sdk-transcribe\1.12.70\aws-java-sdk-transcribe-1.12.70.jar;C:\Users\Nghia\.m2\repository\com\amazonaws\aws-java-sdk-autoscalingplans\1.12.70\aws-java-sdk-autoscalingplans-1.12.70.jar;C:\Users\Nghia\.m2\repository\com\amazonaws\aws-java-sdk-workmail\1.12.70\aws-java-sdk-workmail-1.12.70.jar;C:\Users\Nghia\.m2\repository\com\amazonaws\aws-java-sdk-servicediscovery\1.12.70\aws-java-sdk-servicediscovery-1.12.70.jar;C:\Users\Nghia\.m2\repository\com\amazonaws\aws-java-sdk-cloud9\1.12.70\aws-java-sdk-cloud9-1.12.70.jar;C:\Users\Nghia\.m2\repository\com\amazonaws\aws-java-sdk-serverlessapplicationrepository\1.12.70\aws-java-sdk-serverlessapplicationrepository-1.12.70.jar;C:\Users\Nghia\.m2\repository\com\amazonaws\aws-java-sdk-alexaforbusiness\1.12.70\aws-java-sdk-alexaforbusiness-1.12.70.jar;C:\Users\Nghia\.m2\repository\com\amazonaws\aws-java-sdk-resourcegroups\1.12.70\aws-java-sdk-resourcegroups-1.12.70.jar;C:\Users\Nghia\.m2\repository\com\amazonaws\aws-java-sdk-comprehend\1.12.70\aws-java-sdk-comprehend-1.12.70.jar;C:\Users\Nghia\.m2\repository\com\amazonaws\aws-java-sdk-translate\1.12.70\aws-java-sdk-translate-1.12.70.jar;C:\Users\Nghia\.m2\repository\com\amazonaws\aws-java-sdk-sagemaker\1.12.70\aws-java-sdk-sagemaker-1.12.70.jar;C:\Users\Nghia\.m2\repository\com\amazonaws\aws-java-sdk-iotjobsdataplane\1.12.70\aws-java-sdk-iotjobsdataplane-1.12.70.jar;C:\Users\Nghia\.m2\repository\com\amazonaws\aws-java-sdk-sagemakerruntime\1.12.70\aws-java-sdk-sagemakerruntime-1.12.70.jar;C:\Users\Nghia\.m2\repository\com\amazonaws\aws-java-sdk-kinesisvideo\1.12.70\aws-java-sdk-kinesisvideo-1.12.70.jar;C:\Users\Nghia\.m2\repository\io\netty\netty-codec-http\4.1.69.Final\netty-codec-http-4.1.69.Final.jar;C:\Users\Nghia\.m2\repository\io\netty\netty-common\4.1.69.Final\netty-common-4.1.69.Final.jar;C:\Users\Nghia\.m2\repository\io\netty\netty-buffer\4.1.69.Final\netty-buffer-4.1.69.Final.jar;C:\Users\Nghia\.m2\repository\io\netty\netty-transport\4.1.69.Final\netty-transport-4.1.69.Final.jar;C:\Users\Nghia\.m2\repository\io\netty\netty-codec\4.1.69.Final\netty-codec-4.1.69.Final.jar;C:\Users\Nghia\.m2\repository\io\netty\netty-handler\4.1.69.Final\netty-handler-4.1.69.Final.jar;C:\Users\Nghia\.m2\repository\io\netty\netty-resolver\4.1.69.Final\netty-resolver-4.1.69.Final.jar;C:\Users\Nghia\.m2\repository\com\amazonaws\aws-java-sdk-appsync\1.12.70\aws-java-sdk-appsync-1.12.70.jar;C:\Users\Nghia\.m2\repository\com\amazonaws\aws-java-sdk-guardduty\1.12.70\aws-java-sdk-guardduty-1.12.70.jar;C:\Users\Nghia\.m2\repository\com\amazonaws\aws-java-sdk-mq\1.12.70\aws-java-sdk-mq-1.12.70.jar;C:\Users\Nghia\.m2\repository\com\amazonaws\aws-java-sdk-mediaconvert\1.12.70\aws-java-sdk-mediaconvert-1.12.70.jar;C:\Users\Nghia\.m2\repository\com\amazonaws\aws-java-sdk-mediastore\1.12.70\aws-java-sdk-mediastore-1.12.70.jar;C:\Users\Nghia\.m2\repository\com\amazonaws\aws-java-sdk-mediastoredata\1.12.70\aws-java-sdk-mediastoredata-1.12.70.jar;C:\Users\Nghia\.m2\repository\com\amazonaws\aws-java-sdk-medialive\1.12.70\aws-java-sdk-medialive-1.12.70.jar;C:\Users\Nghia\.m2\repository\com\amazonaws\aws-java-sdk-mediapackage\1.12.70\aws-java-sdk-mediapackage-1.12.70.jar;C:\Users\Nghia\.m2\repository\com\amazonaws\aws-java-sdk-costexplorer\1.12.70\aws-java-sdk-costexplorer-1.12.70.jar;C:\Users\Nghia\.m2\repository\com\amazonaws\aws-java-sdk-pricing\1.12.70\aws-java-sdk-pricing-1.12.70.jar;C:\Users\Nghia\.m2\repository\com\amazonaws\aws-java-sdk-mobile\1.12.70\aws-java-sdk-mobile-1.12.70.jar;C:\Users\Nghia\.m2\repository\com\amazonaws\aws-java-sdk-cloudhsmv2\1.12.70\aws-java-sdk-cloudhsmv2-1.12.70.jar;C:\Users\Nghia\.m2\repository\com\amazonaws\aws-java-sdk-glue\1.12.70\aws-java-sdk-glue-1.12.70.jar;C:\Users\Nghia\.m2\repository\com\amazonaws\aws-java-sdk-migrationhub\1.12.70\aws-java-sdk-migrationhub-1.12.70.jar;C:\Users\Nghia\.m2\repository\com\amazonaws\aws-java-sdk-dax\1.12.70\aws-java-sdk-dax-1.12.70.jar;C:\Users\Nghia\.m2\repository\com\amazonaws\aws-java-sdk-greengrass\1.12.70\aws-java-sdk-greengrass-1.12.70.jar;C:\Users\Nghia\.m2\repository\com\amazonaws\aws-java-sdk-athena\1.12.70\aws-java-sdk-athena-1.12.70.jar;C:\Users\Nghia\.m2\repository\com\amazonaws\aws-java-sdk-marketplaceentitlement\1.12.70\aws-java-sdk-marketplaceentitlement-1.12.70.jar;C:\Users\Nghia\.m2\repository\com\amazonaws\aws-java-sdk-codestar\1.12.70\aws-java-sdk-codestar-1.12.70.jar;C:\Users\Nghia\.m2\repository\com\amazonaws\aws-java-sdk-lexmodelbuilding\1.12.70\aws-java-sdk-lexmodelbuilding-1.12.70.jar;C:\Users\Nghia\.m2\repository\com\amazonaws\aws-java-sdk-resourcegroupstaggingapi\1.12.70\aws-java-sdk-resourcegroupstaggingapi-1.12.70.jar;C:\Users\Nghia\.m2\repository\com\amazonaws\aws-java-sdk-pinpoint\1.12.70\aws-java-sdk-pinpoint-1.12.70.jar;C:\Users\Nghia\.m2\repository\com\amazonaws\aws-java-sdk-xray\1.12.70\aws-java-sdk-xray-1.12.70.jar;C:\Users\Nghia\.m2\repository\com\amazonaws\aws-java-sdk-opsworkscm\1.12.70\aws-java-sdk-opsworkscm-1.12.70.jar;C:\Users\Nghia\.m2\repository\com\amazonaws\aws-java-sdk-support\1.12.70\aws-java-sdk-support-1.12.70.jar;C:\Users\Nghia\.m2\repository\com\amazonaws\aws-java-sdk-simpledb\1.12.70\aws-java-sdk-simpledb-1.12.70.jar;C:\Users\Nghia\.m2\repository\com\amazonaws\aws-java-sdk-servicecatalog\1.12.70\aws-java-sdk-servicecatalog-1.12.70.jar;C:\Users\Nghia\.m2\repository\com\amazonaws\aws-java-sdk-servermigration\1.12.70\aws-java-sdk-servermigration-1.12.70.jar;C:\Users\Nghia\.m2\repository\com\amazonaws\aws-java-sdk-simpleworkflow\1.12.70\aws-java-sdk-simpleworkflow-1.12.70.jar;C:\Users\Nghia\.m2\repository\com\amazonaws\aws-java-sdk-storagegateway\1.12.70\aws-java-sdk-storagegateway-1.12.70.jar;C:\Users\Nghia\.m2\repository\com\amazonaws\aws-java-sdk-route53\1.12.70\aws-java-sdk-route53-1.12.70.jar;C:\Users\Nghia\.m2\repository\com\amazonaws\aws-java-sdk-s3\1.12.70\aws-java-sdk-s3-1.12.70.jar;C:\Users\Nghia\.m2\repository\com\amazonaws\aws-java-sdk-importexport\1.12.70\aws-java-sdk-importexport-1.12.70.jar;C:\Users\Nghia\.m2\repository\com\amazonaws\aws-java-sdk-sts\1.12.70\aws-java-sdk-sts-1.12.70.jar;C:\Users\Nghia\.m2\repository\com\amazonaws\aws-java-sdk-sqs\1.12.70\aws-java-sdk-sqs-1.12.70.jar;C:\Users\Nghia\.m2\repository\com\amazonaws\aws-java-sdk-rds\1.12.70\aws-java-sdk-rds-1.12.70.jar;C:\Users\Nghia\.m2\repository\com\amazonaws\aws-java-sdk-redshift\1.12.70\aws-java-sdk-redshift-1.12.70.jar;C:\Users\Nghia\.m2\repository\com\amazonaws\aws-java-sdk-elasticbeanstalk\1.12.70\aws-java-sdk-elasticbeanstalk-1.12.70.jar;C:\Users\Nghia\.m2\repository\com\amazonaws\aws-java-sdk-glacier\1.12.70\aws-java-sdk-glacier-1.12.70.jar;C:\Users\Nghia\.m2\repository\com\amazonaws\aws-java-sdk-iam\1.12.70\aws-java-sdk-iam-1.12.70.jar;C:\Users\Nghia\.m2\repository\com\amazonaws\aws-java-sdk-datapipeline\1.12.70\aws-java-sdk-datapipeline-1.12.70.jar;C:\Users\Nghia\.m2\repository\com\amazonaws\aws-java-sdk-elasticloadbalancing\1.12.70\aws-java-sdk-elasticloadbalancing-1.12.70.jar;C:\Users\Nghia\.m2\repository\com\amazonaws\aws-java-sdk-elasticloadbalancingv2\1.12.70\aws-java-sdk-elasticloadbalancingv2-1.12.70.jar;C:\Users\Nghia\.m2\repository\com\amazonaws\aws-java-sdk-emr\1.12.70\aws-java-sdk-emr-1.12.70.jar;C:\Users\Nghia\.m2\repository\com\amazonaws\aws-java-sdk-elasticache\1.12.70\aws-java-sdk-elasticache-1.12.70.jar;C:\Users\Nghia\.m2\repository\com\amazonaws\aws-java-sdk-elastictranscoder\1.12.70\aws-java-sdk-elastictranscoder-1.12.70.jar;C:\Users\Nghia\.m2\repository\com\amazonaws\aws-java-sdk-ec2\1.12.70\aws-java-sdk-ec2-1.12.70.jar;C:\Users\Nghia\.m2\repository\com\amazonaws\aws-java-sdk-dynamodb\1.12.70\aws-java-sdk-dynamodb-1.12.70.jar;C:\Users\Nghia\.m2\repository\com\amazonaws\aws-java-sdk-sns\1.12.70\aws-java-sdk-sns-1.12.70.jar;C:\Users\Nghia\.m2\repository\com\amazonaws\aws-java-sdk-budgets\1.12.70\aws-java-sdk-budgets-1.12.70.jar;C:\Users\Nghia\.m2\repository\com\amazonaws\aws-java-sdk-cloudtrail\1.12.70\aws-java-sdk-cloudtrail-1.12.70.jar;C:\Users\Nghia\.m2\repository\com\amazonaws\aws-java-sdk-cloudwatch\1.12.70\aws-java-sdk-cloudwatch-1.12.70.jar;C:\Users\Nghia\.m2\repository\com\amazonaws\aws-java-sdk-logs\1.12.70\aws-java-sdk-logs-1.12.70.jar;C:\Users\Nghia\.m2\repository\com\amazonaws\aws-java-sdk-events\1.12.70\aws-java-sdk-events-1.12.70.jar;C:\Users\Nghia\.m2\repository\com\amazonaws\aws-java-sdk-cognitoidentity\1.12.70\aws-java-sdk-cognitoidentity-1.12.70.jar;C:\Users\Nghia\.m2\repository\com\amazonaws\aws-java-sdk-cognitosync\1.12.70\aws-java-sdk-cognitosync-1.12.70.jar;C:\Users\Nghia\.m2\repository\com\amazonaws\aws-java-sdk-directconnect\1.12.70\aws-java-sdk-directconnect-1.12.70.jar;C:\Users\Nghia\.m2\repository\com\amazonaws\aws-java-sdk-cloudformation\1.12.70\aws-java-sdk-cloudformation-1.12.70.jar;C:\Users\Nghia\.m2\repository\com\amazonaws\aws-java-sdk-cloudfront\1.12.70\aws-java-sdk-cloudfront-1.12.70.jar;C:\Users\Nghia\.m2\repository\com\amazonaws\aws-java-sdk-clouddirectory\1.12.70\aws-java-sdk-clouddirectory-1.12.70.jar;C:\Users\Nghia\.m2\repository\com\amazonaws\aws-java-sdk-kinesis\1.12.70\aws-java-sdk-kinesis-1.12.70.jar;C:\Users\Nghia\.m2\repository\com\amazonaws\aws-java-sdk-opsworks\1.12.70\aws-java-sdk-opsworks-1.12.70.jar;C:\Users\Nghia\.m2\repository\com\amazonaws\aws-java-sdk-ses\1.12.70\aws-java-sdk-ses-1.12.70.jar;C:\Users\Nghia\.m2\repository\com\amazonaws\aws-java-sdk-autoscaling\1.12.70\aws-java-sdk-autoscaling-1.12.70.jar;C:\Users\Nghia\.m2\repository\com\amazonaws\aws-java-sdk-cloudsearch\1.12.70\aws-java-sdk-cloudsearch-1.12.70.jar;C:\Users\Nghia\.m2\repository\com\amazonaws\aws-java-sdk-cloudwatchmetrics\1.12.70\aws-java-sdk-cloudwatchmetrics-1.12.70.jar;C:\Users\Nghia\.m2\repository\com\amazonaws\aws-java-sdk-codedeploy\1.12.70\aws-java-sdk-codedeploy-1.12.70.jar;C:\Users\Nghia\.m2\repository\com\amazonaws\aws-java-sdk-codepipeline\1.12.70\aws-java-sdk-codepipeline-1.12.70.jar;C:\Users\Nghia\.m2\repository\com\amazonaws\aws-java-sdk-kms\1.12.70\aws-java-sdk-kms-1.12.70.jar;C:\Users\Nghia\.m2\repository\com\amazonaws\aws-java-sdk-config\1.12.70\aws-java-sdk-config-1.12.70.jar;C:\Users\Nghia\.m2\repository\com\amazonaws\aws-java-sdk-lambda\1.12.70\aws-java-sdk-lambda-1.12.70.jar;C:\Users\Nghia\.m2\repository\com\amazonaws\aws-java-sdk-ecs\1.12.70\aws-java-sdk-ecs-1.12.70.jar;C:\Users\Nghia\.m2\repository\com\amazonaws\aws-java-sdk-ecr\1.12.70\aws-java-sdk-ecr-1.12.70.jar;C:\Users\Nghia\.m2\repository\com\amazonaws\aws-java-sdk-cloudhsm\1.12.70\aws-java-sdk-cloudhsm-1.12.70.jar;C:\Users\Nghia\.m2\repository\com\amazonaws\aws-java-sdk-ssm\1.12.70\aws-java-sdk-ssm-1.12.70.jar;C:\Users\Nghia\.m2\repository\com\amazonaws\aws-java-sdk-workspaces\1.12.70\aws-java-sdk-workspaces-1.12.70.jar;C:\Users\Nghia\.m2\repository\com\amazonaws\aws-java-sdk-machinelearning\1.12.70\aws-java-sdk-machinelearning-1.12.70.jar;C:\Users\Nghia\.m2\repository\com\amazonaws\aws-java-sdk-directory\1.12.70\aws-java-sdk-directory-1.12.70.jar;C:\Users\Nghia\.m2\repository\com\amazonaws\aws-java-sdk-efs\1.12.70\aws-java-sdk-efs-1.12.70.jar;C:\Users\Nghia\.m2\repository\com\amazonaws\aws-java-sdk-codecommit\1.12.70\aws-java-sdk-codecommit-1.12.70.jar;C:\Users\Nghia\.m2\repository\com\amazonaws\aws-java-sdk-devicefarm\1.12.70\aws-java-sdk-devicefarm-1.12.70.jar;C:\Users\Nghia\.m2\repository\com\amazonaws\aws-java-sdk-elasticsearch\1.12.70\aws-java-sdk-elasticsearch-1.12.70.jar;C:\Users\Nghia\.m2\repository\com\amazonaws\aws-java-sdk-waf\1.12.70\aws-java-sdk-waf-1.12.70.jar;C:\Users\Nghia\.m2\repository\com\amazonaws\aws-java-sdk-marketplacecommerceanalytics\1.12.70\aws-java-sdk-marketplacecommerceanalytics-1.12.70.jar;C:\Users\Nghia\.m2\repository\com\amazonaws\aws-java-sdk-inspector\1.12.70\aws-java-sdk-inspector-1.12.70.jar;C:\Users\Nghia\.m2\repository\com\amazonaws\aws-java-sdk-iot\1.12.70\aws-java-sdk-iot-1.12.70.jar;C:\Users\Nghia\.m2\repository\com\amazonaws\aws-java-sdk-api-gateway\1.12.70\aws-java-sdk-api-gateway-1.12.70.jar;C:\Users\Nghia\.m2\repository\com\amazonaws\aws-java-sdk-acm\1.12.70\aws-java-sdk-acm-1.12.70.jar;C:\Users\Nghia\.m2\repository\com\amazonaws\aws-java-sdk-gamelift\1.12.70\aws-java-sdk-gamelift-1.12.70.jar;C:\Users\Nghia\.m2\repository\com\amazonaws\aws-java-sdk-dms\1.12.70\aws-java-sdk-dms-1.12.70.jar;C:\Users\Nghia\.m2\repository\com\amazonaws\aws-java-sdk-marketplacemeteringservice\1.12.70\aws-java-sdk-marketplacemeteringservice-1.12.70.jar;C:\Users\Nghia\.m2\repository\com\amazonaws\aws-java-sdk-cognitoidp\1.12.70\aws-java-sdk-cognitoidp-1.12.70.jar;C:\Users\Nghia\.m2\repository\com\amazonaws\aws-java-sdk-discovery\1.12.70\aws-java-sdk-discovery-1.12.70.jar;C:\Users\Nghia\.m2\repository\com\amazonaws\aws-java-sdk-applicationautoscaling\1.12.70\aws-java-sdk-applicationautoscaling-1.12.70.jar;C:\Users\Nghia\.m2\repository\com\amazonaws\aws-java-sdk-snowball\1.12.70\aws-java-sdk-snowball-1.12.70.jar;C:\Users\Nghia\.m2\repository\com\amazonaws\aws-java-sdk-rekognition\1.12.70\aws-java-sdk-rekognition-1.12.70.jar;C:\Users\Nghia\.m2\repository\com\amazonaws\aws-java-sdk-polly\1.12.70\aws-java-sdk-polly-1.12.70.jar;C:\Users\Nghia\.m2\repository\com\amazonaws\aws-java-sdk-lightsail\1.12.70\aws-java-sdk-lightsail-1.12.70.jar;C:\Users\Nghia\.m2\repository\com\amazonaws\aws-java-sdk-stepfunctions\1.12.70\aws-java-sdk-stepfunctions-1.12.70.jar;C:\Users\Nghia\.m2\repository\com\amazonaws\aws-java-sdk-health\1.12.70\aws-java-sdk-health-1.12.70.jar;C:\Users\Nghia\.m2\repository\com\amazonaws\aws-java-sdk-costandusagereport\1.12.70\aws-java-sdk-costandusagereport-1.12.70.jar;C:\Users\Nghia\.m2\repository\com\amazonaws\aws-java-sdk-codebuild\1.12.70\aws-java-sdk-codebuild-1.12.70.jar;C:\Users\Nghia\.m2\repository\com\amazonaws\aws-java-sdk-appstream\1.12.70\aws-java-sdk-appstream-1.12.70.jar;C:\Users\Nghia\.m2\repository\com\amazonaws\aws-java-sdk-shield\1.12.70\aws-java-sdk-shield-1.12.70.jar;C:\Users\Nghia\.m2\repository\com\amazonaws\aws-java-sdk-batch\1.12.70\aws-java-sdk-batch-1.12.70.jar;C:\Users\Nghia\.m2\repository\com\amazonaws\aws-java-sdk-lex\1.12.70\aws-java-sdk-lex-1.12.70.jar;C:\Users\Nghia\.m2\repository\com\amazonaws\aws-java-sdk-mechanicalturkrequester\1.12.70\aws-java-sdk-mechanicalturkrequester-1.12.70.jar;C:\Users\Nghia\.m2\repository\com\amazonaws\aws-java-sdk-organizations\1.12.70\aws-java-sdk-organizations-1.12.70.jar;C:\Users\Nghia\.m2\repository\com\amazonaws\aws-java-sdk-workdocs\1.12.70\aws-java-sdk-workdocs-1.12.70.jar;C:\Users\Nghia\.m2\repository\com\amazonaws\aws-java-sdk-core\1.12.70\aws-java-sdk-core-1.12.70.jar;C:\Users\Nghia\.m2\repository\commons-logging\commons-logging\1.1.3\commons-logging-1.1.3.jar;C:\Users\Nghia\.m2\repository\commons-codec\commons-codec\1.15\commons-codec-1.15.jar;C:\Users\Nghia\.m2\repository\org\apache\httpcomponents\httpclient\4.5.13\httpclient-4.5.13.jar;C:\Users\Nghia\.m2\repository\org\apache\httpcomponents\httpcore\4.4.14\httpcore-4.4.14.jar;C:\Users\Nghia\.m2\repository\software\amazon\ion\ion-java\1.0.2\ion-java-1.0.2.jar;C:\Users\Nghia\.m2\repository\com\fasterxml\jackson\dataformat\jackson-dataformat-cbor\2.12.5\jackson-dataformat-cbor-2.12.5.jar;C:\Users\Nghia\.m2\repository\joda-time\joda-time\2.8.1\joda-time-2.8.1.jar;C:\Users\Nghia\.m2\repository\com\amazonaws\aws-java-sdk-models\1.12.70\aws-java-sdk-models-1.12.70.jar;C:\Users\Nghia\.m2\repository\com\amazonaws\aws-java-sdk-swf-libraries\1.11.22\aws-java-sdk-swf-libraries-1.11.22.jar;"/>
    <property name="java.vm.vendor" value="Oracle Corporation"/>
    <property name="sun.arch.data.model" value="64"/>
    <property name="user.variant" value=""/>
    <property name="java.vendor.url" value="https://openjdk.java.net/"/>
    <property name="user.timezone" value="Asia/Bangkok"/>
    <property name="java.vm.specification.version" value="11"/>
    <property name="os.name" value="Windows 10"/>
    <property name="sun.java.launcher" value="SUN_STANDARD"/>
    <property name="user.country" value="US"/>
    <property name="sun.boot.library.path" value="C:\Program Files\Java\jdk-11.0.12\bin"/>
    <property name="sun.java.command" value="C:\Users\Nghia\AppData\Local\Temp\surefire2774599415147042223\surefirebooter3235095968768772791.jar C:\Users\Nghia\AppData\Local\Temp\surefire2774599415147042223 2021-11-26T07-33-37_612-jvmRun1 surefire13641218765002180608tmp surefire_01085889779128923236tmp"/>
    <property name="jdk.debug" value="release"/>
    <property name="surefire.test.class.path" value="E:\InformationTechnology\Nam_4Ky_1\DienToanDamMay\20211119_Project\cloudcomputing\backend\target\test-classes;E:\InformationTechnology\Nam_4Ky_1\DienToanDamMay\20211119_Project\cloudcomputing\backend\target\classes;C:\Users\Nghia\.m2\repository\org\springframework\boot\spring-boot-starter-web\2.5.6\spring-boot-starter-web-2.5.6.jar;C:\Users\Nghia\.m2\repository\org\springframework\boot\spring-boot-starter\2.5.6\spring-boot-starter-2.5.6.jar;C:\Users\Nghia\.m2\repository\org\springframework\boot\spring-boot\2.5.6\spring-boot-2.5.6.jar;C:\Users\Nghia\.m2\repository\org\springframework\boot\spring-boot-autoconfigure\2.5.6\spring-boot-autoconfigure-2.5.6.jar;C:\Users\Nghia\.m2\repository\org\springframework\boot\spring-boot-starter-logging\2.5.6\spring-boot-starter-logging-2.5.6.jar;C:\Users\Nghia\.m2\repository\ch\qos\logback\logback-classic\1.2.6\logback-classic-1.2.6.jar;C:\Users\Nghia\.m2\repository\ch\qos\logback\logback-core\1.2.6\logback-core-1.2.6.jar;C:\Users\Nghia\.m2\repository\org\apache\logging\log4j\log4j-to-slf4j\2.14.1\log4j-to-slf4j-2.14.1.jar;C:\Users\Nghia\.m2\repository\org\apache\logging\log4j\log4j-api\2.14.1\log4j-api-2.14.1.jar;C:\Users\Nghia\.m2\repository\org\slf4j\jul-to-slf4j\1.7.32\jul-to-slf4j-1.7.32.jar;C:\Users\Nghia\.m2\repository\jakarta\annotation\jakarta.annotation-api\1.3.5\jakarta.annotation-api-1.3.5.jar;C:\Users\Nghia\.m2\repository\org\yaml\snakeyaml\1.28\snakeyaml-1.28.jar;C:\Users\Nghia\.m2\repository\org\springframework\boot\spring-boot-starter-json\2.5.6\spring-boot-starter-json-2.5.6.jar;C:\Users\Nghia\.m2\repository\com\fasterxml\jackson\core\jackson-databind\2.12.5\jackson-databind-2.12.5.jar;C:\Users\Nghia\.m2\repository\com\fasterxml\jackson\core\jackson-annotations\2.12.5\jackson-annotations-2.12.5.jar;C:\Users\Nghia\.m2\repository\com\fasterxml\jackson\core\jackson-core\2.12.5\jackson-core-2.12.5.jar;C:\Users\Nghia\.m2\repository\com\fasterxml\jackson\datatype\jackson-datatype-jdk8\2.12.5\jackson-datatype-jdk8-2.12.5.jar;C:\Users\Nghia\.m2\repository\com\fasterxml\jackson\datatype\jackson-datatype-jsr310\2.12.5\jackson-datatype-jsr310-2.12.5.jar;C:\Users\Nghia\.m2\repository\com\fasterxml\jackson\module\jackson-module-parameter-names\2.12.5\jackson-module-parameter-names-2.12.5.jar;C:\Users\Nghia\.m2\repository\org\springframework\boot\spring-boot-starter-tomcat\2.5.6\spring-boot-starter-tomcat-2.5.6.jar;C:\Users\Nghia\.m2\repository\org\apache\tomcat\embed\tomcat-embed-core\9.0.54\tomcat-embed-core-9.0.54.jar;C:\Users\Nghia\.m2\repository\org\apache\tomcat\embed\tomcat-embed-el\9.0.54\tomcat-embed-el-9.0.54.jar;C:\Users\Nghia\.m2\repository\org\apache\tomcat\embed\tomcat-embed-websocket\9.0.54\tomcat-embed-websocket-9.0.54.jar;C:\Users\Nghia\.m2\repository\org\springframework\spring-web\5.3.12\spring-web-5.3.12.jar;C:\Users\Nghia\.m2\repository\org\springframework\spring-beans\5.3.12\spring-beans-5.3.12.jar;C:\Users\Nghia\.m2\repository\org\springframework\spring-webmvc\5.3.12\spring-webmvc-5.3.12.jar;C:\Users\Nghia\.m2\repository\org\springframework\spring-aop\5.3.12\spring-aop-5.3.12.jar;C:\Users\Nghia\.m2\repository\org\springframework\spring-context\5.3.12\spring-context-5.3.12.jar;C:\Users\Nghia\.m2\repository\org\springframework\spring-expression\5.3.12\spring-expression-5.3.12.jar;C:\Users\Nghia\.m2\repository\org\springframework\boot\spring-boot-starter-test\2.5.6\spring-boot-starter-test-2.5.6.jar;C:\Users\Nghia\.m2\repository\org\springframework\boot\spring-boot-test\2.5.6\spring-boot-test-2.5.6.jar;C:\Users\Nghia\.m2\repository\org\springframework\boot\spring-boot-test-autoconfigure\2.5.6\spring-boot-test-autoconfigure-2.5.6.jar;C:\Users\Nghia\.m2\repository\com\jayway\jsonpath\json-path\2.5.0\json-path-2.5.0.jar;C:\Users\Nghia\.m2\repository\net\minidev\json-smart\2.4.7\json-smart-2.4.7.jar;C:\Users\Nghia\.m2\repository\net\minidev\accessors-smart\2.4.7\accessors-smart-2.4.7.jar;C:\Users\Nghia\.m2\repository\org\ow2\asm\asm\9.1\asm-9.1.jar;C:\Users\Nghia\.m2\repository\org\slf4j\slf4j-api\1.7.32\slf4j-api-1.7.32.jar;C:\Users\Nghia\.m2\repository\jakarta\xml\bind\jakarta.xml.bind-api\2.3.3\jakarta.xml.bind-api-2.3.3.jar;C:\Users\Nghia\.m2\repository\jakarta\activation\jakarta.activation-api\1.2.2\jakarta.activation-api-1.2.2.jar;C:\Users\Nghia\.m2\repository\org\assertj\assertj-core\3.19.0\assertj-core-3.19.0.jar;C:\Users\Nghia\.m2\repository\org\hamcrest\hamcrest\2.2\hamcrest-2.2.jar;C:\Users\Nghia\.m2\repository\org\junit\jupiter\junit-jupiter\5.7.2\junit-jupiter-5.7.2.jar;C:\Users\Nghia\.m2\repository\org\junit\jupiter\junit-jupiter-api\5.7.2\junit-jupiter-api-5.7.2.jar;C:\Users\Nghia\.m2\repository\org\apiguardian\apiguardian-api\1.1.0\apiguardian-api-1.1.0.jar;C:\Users\Nghia\.m2\repository\org\opentest4j\opentest4j\1.2.0\opentest4j-1.2.0.jar;C:\Users\Nghia\.m2\repository\org\junit\platform\junit-platform-commons\1.7.2\junit-platform-commons-1.7.2.jar;C:\Users\Nghia\.m2\repository\org\junit\jupiter\junit-jupiter-params\5.7.2\junit-jupiter-params-5.7.2.jar;C:\Users\Nghia\.m2\repository\org\junit\jupiter\junit-jupiter-engine\5.7.2\junit-jupiter-engine-5.7.2.jar;C:\Users\Nghia\.m2\repository\org\junit\platform\junit-platform-engine\1.7.2\junit-platform-engine-1.7.2.jar;C:\Users\Nghia\.m2\repository\org\mockito\mockito-core\3.9.0\mockito-core-3.9.0.jar;C:\Users\Nghia\.m2\repository\net\bytebuddy\byte-buddy\1.10.22\byte-buddy-1.10.22.jar;C:\Users\Nghia\.m2\repository\net\bytebuddy\byte-buddy-agent\1.10.22\byte-buddy-agent-1.10.22.jar;C:\Users\Nghia\.m2\repository\org\objenesis\objenesis\3.2\objenesis-3.2.jar;C:\Users\Nghia\.m2\repository\org\mockito\mockito-junit-jupiter\3.9.0\mockito-junit-jupiter-3.9.0.jar;C:\Users\Nghia\.m2\repository\org\skyscreamer\jsonassert\1.5.0\jsonassert-1.5.0.jar;C:\Users\Nghia\.m2\repository\com\vaadin\external\google\android-json\0.0.20131108.vaadin1\android-json-0.0.20131108.vaadin1.jar;C:\Users\Nghia\.m2\repository\org\springframework\spring-core\5.3.12\spring-core-5.3.12.jar;C:\Users\Nghia\.m2\repository\org\springframework\spring-jcl\5.3.12\spring-jcl-5.3.12.jar;C:\Users\Nghia\.m2\repository\org\springframework\spring-test\5.3.12\spring-test-5.3.12.jar;C:\Users\Nghia\.m2\repository\org\xmlunit\xmlunit-core\2.8.3\xmlunit-core-2.8.3.jar;C:\Users\Nghia\.m2\repository\org\springframework\boot\spring-boot-starter-data-jpa\2.5.6\spring-boot-starter-data-jpa-2.5.6.jar;C:\Users\Nghia\.m2\repository\org\springframework\boot\spring-boot-starter-aop\2.5.6\spring-boot-starter-aop-2.5.6.jar;C:\Users\Nghia\.m2\repository\org\aspectj\aspectjweaver\1.9.7\aspectjweaver-1.9.7.jar;C:\Users\Nghia\.m2\repository\org\springframework\boot\spring-boot-starter-jdbc\2.5.6\spring-boot-starter-jdbc-2.5.6.jar;C:\Users\Nghia\.m2\repository\com\zaxxer\HikariCP\4.0.3\HikariCP-4.0.3.jar;C:\Users\Nghia\.m2\repository\org\springframework\spring-jdbc\5.3.12\spring-jdbc-5.3.12.jar;C:\Users\Nghia\.m2\repository\jakarta\transaction\jakarta.transaction-api\1.3.3\jakarta.transaction-api-1.3.3.jar;C:\Users\Nghia\.m2\repository\jakarta\persistence\jakarta.persistence-api\2.2.3\jakarta.persistence-api-2.2.3.jar;C:\Users\Nghia\.m2\repository\org\hibernate\hibernate-core\5.4.32.Final\hibernate-core-5.4.32.Final.jar;C:\Users\Nghia\.m2\repository\org\jboss\logging\jboss-logging\3.4.2.Final\jboss-logging-3.4.2.Final.jar;C:\Users\Nghia\.m2\repository\org\javassist\javassist\3.27.0-GA\javassist-3.27.0-GA.jar;C:\Users\Nghia\.m2\repository\antlr\antlr\2.7.7\antlr-2.7.7.jar;C:\Users\Nghia\.m2\repository\org\jboss\jandex\2.2.3.Final\jandex-2.2.3.Final.jar;C:\Users\Nghia\.m2\repository\com\fasterxml\classmate\1.5.1\classmate-1.5.1.jar;C:\Users\Nghia\.m2\repository\org\dom4j\dom4j\2.1.3\dom4j-2.1.3.jar;C:\Users\Nghia\.m2\repository\org\hibernate\common\hibernate-commons-annotations\5.1.2.Final\hibernate-commons-annotations-5.1.2.Final.jar;C:\Users\Nghia\.m2\repository\org\glassfish\jaxb\jaxb-runtime\2.3.5\jaxb-runtime-2.3.5.jar;C:\Users\Nghia\.m2\repository\org\glassfish\jaxb\txw2\2.3.5\txw2-2.3.5.jar;C:\Users\Nghia\.m2\repository\com\sun\istack\istack-commons-runtime\3.0.12\istack-commons-runtime-3.0.12.jar;C:\Users\Nghia\.m2\repository\com\sun\activation\jakarta.activation\1.2.2\jakarta.activation-1.2.2.jar;C:\Users\Nghia\.m2\repository\org\springframework\data\spring-data-jpa\2.5.6\spring-data-jpa-2.5.6.jar;C:\Users\Nghia\.m2\repository\org\springframework\data\spring-data-commons\2.5.6\spring-data-commons-2.5.6.jar;C:\Users\Nghia\.m2\repository\org\springframework\spring-orm\5.3.12\spring-orm-5.3.12.jar;C:\Users\Nghia\.m2\repository\org\springframework\spring-tx\5.3.12\spring-tx-5.3.12.jar;C:\Users\Nghia\.m2\repository\org\springframework\spring-aspects\5.3.12\spring-aspects-5.3.12.jar;C:\Users\Nghia\.m2\repository\mysql\mysql-connector-java\8.0.27\mysql-connector-java-8.0.27.jar;C:\Users\Nghia\.m2\repository\com\amazonaws\aws-java-sdk\1.12.70\aws-java-sdk-1.12.70.jar;C:\Users\Nghia\.m2\repository\com\amazonaws\aws-java-sdk-kafkaconnect\1.12.70\aws-java-sdk-kafkaconnect-1.12.70.jar;C:\Users\Nghia\.m2\repository\com\amazonaws\jmespath-java\1.12.70\jmespath-java-1.12.70.jar;C:\Users\Nghia\.m2\repository\com\amazonaws\aws-java-sdk-opensearch\1.12.70\aws-java-sdk-opensearch-1.12.70.jar;C:\Users\Nghia\.m2\repository\com\amazonaws\aws-java-sdk-memorydb\1.12.70\aws-java-sdk-memorydb-1.12.70.jar;C:\Users\Nghia\.m2\repository\com\amazonaws\aws-java-sdk-snowdevicemanagement\1.12.70\aws-java-sdk-snowdevicemanagement-1.12.70.jar;C:\Users\Nghia\.m2\repository\com\amazonaws\aws-java-sdk-chimesdkidentity\1.12.70\aws-java-sdk-chimesdkidentity-1.12.70.jar;C:\Users\Nghia\.m2\repository\com\amazonaws\aws-java-sdk-chimesdkmessaging\1.12.70\aws-java-sdk-chimesdkmessaging-1.12.70.jar;C:\Users\Nghia\.m2\repository\com\amazonaws\aws-java-sdk-route53recoverycluster\1.12.70\aws-java-sdk-route53recoverycluster-1.12.70.jar;C:\Users\Nghia\.m2\repository\com\amazonaws\aws-java-sdk-route53recoverycontrolconfig\1.12.70\aws-java-sdk-route53recoverycontrolconfig-1.12.70.jar;C:\Users\Nghia\.m2\repository\com\amazonaws\aws-java-sdk-route53recoveryreadiness\1.12.70\aws-java-sdk-route53recoveryreadiness-1.12.70.jar;C:\Users\Nghia\.m2\repository\com\amazonaws\aws-java-sdk-proton\1.12.70\aws-java-sdk-proton-1.12.70.jar;C:\Users\Nghia\.m2\repository\com\amazonaws\aws-java-sdk-apprunner\1.12.70\aws-java-sdk-apprunner-1.12.70.jar;C:\Users\Nghia\.m2\repository\com\amazonaws\aws-java-sdk-applicationcostprofiler\1.12.70\aws-java-sdk-applicationcostprofiler-1.12.70.jar;C:\Users\Nghia\.m2\repository\com\amazonaws\aws-java-sdk-ssmcontacts\1.12.70\aws-java-sdk-ssmcontacts-1.12.70.jar;C:\Users\Nghia\.m2\repository\com\amazonaws\aws-java-sdk-ssmincidents\1.12.70\aws-java-sdk-ssmincidents-1.12.70.jar;C:\Users\Nghia\.m2\repository\com\amazonaws\aws-java-sdk-finspacedata\1.12.70\aws-java-sdk-finspacedata-1.12.70.jar;C:\Users\Nghia\.m2\repository\com\amazonaws\aws-java-sdk-finspace\1.12.70\aws-java-sdk-finspace-1.12.70.jar;C:\Users\Nghia\.m2\repository\com\amazonaws\aws-java-sdk-nimblestudio\1.12.70\aws-java-sdk-nimblestudio-1.12.70.jar;C:\Users\Nghia\.m2\repository\com\amazonaws\aws-java-sdk-lookoutequipment\1.12.70\aws-java-sdk-lookoutequipment-1.12.70.jar;C:\Users\Nghia\.m2\repository\com\amazonaws\aws-java-sdk-mgn\1.12.70\aws-java-sdk-mgn-1.12.70.jar;C:\Users\Nghia\.m2\repository\com\amazonaws\aws-java-sdk-lookoutmetrics\1.12.70\aws-java-sdk-lookoutmetrics-1.12.70.jar;C:\Users\Nghia\.m2\repository\com\amazonaws\aws-java-sdk-fis\1.12.70\aws-java-sdk-fis-1.12.70.jar;C:\Users\Nghia\.m2\repository\com\amazonaws\aws-java-sdk-lexmodelsv2\1.12.70\aws-java-sdk-lexmodelsv2-1.12.70.jar;C:\Users\Nghia\.m2\repository\com\amazonaws\aws-java-sdk-lexruntimev2\1.12.70\aws-java-sdk-lexruntimev2-1.12.70.jar;C:\Users\Nghia\.m2\repository\com\amazonaws\aws-java-sdk-wellarchitected\1.12.70\aws-java-sdk-wellarchitected-1.12.70.jar;C:\Users\Nghia\.m2\repository\com\amazonaws\aws-java-sdk-location\1.12.70\aws-java-sdk-location-1.12.70.jar;C:\Users\Nghia\.m2\repository\com\amazonaws\aws-java-sdk-iotdeviceadvisor\1.12.70\aws-java-sdk-iotdeviceadvisor-1.12.70.jar;C:\Users\Nghia\.m2\repository\com\amazonaws\aws-java-sdk-iotfleethub\1.12.70\aws-java-sdk-iotfleethub-1.12.70.jar;C:\Users\Nghia\.m2\repository\com\amazonaws\aws-java-sdk-iotwireless\1.12.70\aws-java-sdk-iotwireless-1.12.70.jar;C:\Users\Nghia\.m2\repository\com\amazonaws\aws-java-sdk-greengrassv2\1.12.70\aws-java-sdk-greengrassv2-1.12.70.jar;C:\Users\Nghia\.m2\repository\com\amazonaws\aws-java-sdk-prometheus\1.12.70\aws-java-sdk-prometheus-1.12.70.jar;C:\Users\Nghia\.m2\repository\com\amazonaws\aws-java-sdk-auditmanager\1.12.70\aws-java-sdk-auditmanager-1.12.70.jar;C:\Users\Nghia\.m2\repository\com\amazonaws\aws-java-sdk-healthlake\1.12.70\aws-java-sdk-healthlake-1.12.70.jar;C:\Users\Nghia\.m2\repository\com\amazonaws\aws-java-sdk-sagemakeredgemanager\1.12.70\aws-java-sdk-sagemakeredgemanager-1.12.70.jar;C:\Users\Nghia\.m2\repository\com\amazonaws\aws-java-sdk-emrcontainers\1.12.70\aws-java-sdk-emrcontainers-1.12.70.jar;C:\Users\Nghia\.m2\repository\com\amazonaws\aws-java-sdk-customerprofiles\1.12.70\aws-java-sdk-customerprofiles-1.12.70.jar;C:\Users\Nghia\.m2\repository\com\amazonaws\aws-java-sdk-lookoutforvision\1.12.70\aws-java-sdk-lookoutforvision-1.12.70.jar;C:\Users\Nghia\.m2\repository\com\amazonaws\aws-java-sdk-connectcontactlens\1.12.70\aws-java-sdk-connectcontactlens-1.12.70.jar;C:\Users\Nghia\.m2\repository\com\amazonaws\aws-java-sdk-amplifybackend\1.12.70\aws-java-sdk-amplifybackend-1.12.70.jar;C:\Users\Nghia\.m2\repository\com\amazonaws\aws-java-sdk-ecrpublic\1.12.70\aws-java-sdk-ecrpublic-1.12.70.jar;C:\Users\Nghia\.m2\repository\com\amazonaws\aws-java-sdk-appintegrations\1.12.70\aws-java-sdk-appintegrations-1.12.70.jar;C:\Users\Nghia\.m2\repository\com\amazonaws\aws-java-sdk-sagemakerfeaturestoreruntime\1.12.70\aws-java-sdk-sagemakerfeaturestoreruntime-1.12.70.jar;C:\Users\Nghia\.m2\repository\com\amazonaws\aws-java-sdk-devopsguru\1.12.70\aws-java-sdk-devopsguru-1.12.70.jar;C:\Users\Nghia\.m2\repository\com\amazonaws\aws-java-sdk-mwaa\1.12.70\aws-java-sdk-mwaa-1.12.70.jar;C:\Users\Nghia\.m2\repository\com\amazonaws\aws-java-sdk-networkfirewall\1.12.70\aws-java-sdk-networkfirewall-1.12.70.jar;C:\Users\Nghia\.m2\repository\com\amazonaws\aws-java-sdk-appregistry\1.12.70\aws-java-sdk-appregistry-1.12.70.jar;C:\Users\Nghia\.m2\repository\com\amazonaws\aws-java-sdk-gluedatabrew\1.12.70\aws-java-sdk-gluedatabrew-1.12.70.jar;C:\Users\Nghia\.m2\repository\com\amazonaws\aws-java-sdk-s3outposts\1.12.70\aws-java-sdk-s3outposts-1.12.70.jar;C:\Users\Nghia\.m2\repository\com\amazonaws\aws-java-sdk-timestreamquery\1.12.70\aws-java-sdk-timestreamquery-1.12.70.jar;C:\Users\Nghia\.m2\repository\com\amazonaws\aws-java-sdk-timestreamwrite\1.12.70\aws-java-sdk-timestreamwrite-1.12.70.jar;C:\Users\Nghia\.m2\repository\com\amazonaws\aws-java-sdk-ssoadmin\1.12.70\aws-java-sdk-ssoadmin-1.12.70.jar;C:\Users\Nghia\.m2\repository\com\amazonaws\aws-java-sdk-redshiftdataapi\1.12.70\aws-java-sdk-redshiftdataapi-1.12.70.jar;C:\Users\Nghia\.m2\repository\com\amazonaws\aws-java-sdk-appflow\1.12.70\aws-java-sdk-appflow-1.12.70.jar;C:\Users\Nghia\.m2\repository\com\amazonaws\aws-java-sdk-identitystore\1.12.70\aws-java-sdk-identitystore-1.12.70.jar;C:\Users\Nghia\.m2\repository\com\amazonaws\aws-java-sdk-braket\1.12.70\aws-java-sdk-braket-1.12.70.jar;C:\Users\Nghia\.m2\repository\com\amazonaws\aws-java-sdk-ivs\1.12.70\aws-java-sdk-ivs-1.12.70.jar;C:\Users\Nghia\.m2\repository\com\amazonaws\aws-java-sdk-honeycode\1.12.70\aws-java-sdk-honeycode-1.12.70.jar;C:\Users\Nghia\.m2\repository\com\amazonaws\aws-java-sdk-codeartifact\1.12.70\aws-java-sdk-codeartifact-1.12.70.jar;C:\Users\Nghia\.m2\repository\com\amazonaws\aws-java-sdk-macie2\1.12.70\aws-java-sdk-macie2-1.12.70.jar;C:\Users\Nghia\.m2\repository\com\amazonaws\aws-java-sdk-iotsitewise\1.12.70\aws-java-sdk-iotsitewise-1.12.70.jar;C:\Users\Nghia\.m2\repository\com\amazonaws\aws-java-sdk-synthetics\1.12.70\aws-java-sdk-synthetics-1.12.70.jar;C:\Users\Nghia\.m2\repository\com\amazonaws\aws-java-sdk-codestarconnections\1.12.70\aws-java-sdk-codestarconnections-1.12.70.jar;C:\Users\Nghia\.m2\repository\com\amazonaws\aws-java-sdk-detective\1.12.70\aws-java-sdk-detective-1.12.70.jar;C:\Users\Nghia\.m2\repository\com\amazonaws\aws-java-sdk-kinesisvideosignalingchannels\1.12.70\aws-java-sdk-kinesisvideosignalingchannels-1.12.70.jar;C:\Users\Nghia\.m2\repository\com\amazonaws\aws-java-sdk-ebs\1.12.70\aws-java-sdk-ebs-1.12.70.jar;C:\Users\Nghia\.m2\repository\com\amazonaws\aws-java-sdk-augmentedairuntime\1.12.70\aws-java-sdk-augmentedairuntime-1.12.70.jar;C:\Users\Nghia\.m2\repository\com\amazonaws\aws-java-sdk-outposts\1.12.70\aws-java-sdk-outposts-1.12.70.jar;C:\Users\Nghia\.m2\repository\com\amazonaws\aws-java-sdk-codeguruprofiler\1.12.70\aws-java-sdk-codeguruprofiler-1.12.70.jar;C:\Users\Nghia\.m2\repository\com\amazonaws\aws-java-sdk-codegurureviewer\1.12.70\aws-java-sdk-codegurureviewer-1.12.70.jar;C:\Users\Nghia\.m2\repository\com\amazonaws\aws-java-sdk-frauddetector\1.12.70\aws-java-sdk-frauddetector-1.12.70.jar;C:\Users\Nghia\.m2\repository\com\amazonaws\aws-java-sdk-kendra\1.12.70\aws-java-sdk-kendra-1.12.70.jar;C:\Users\Nghia\.m2\repository\com\amazonaws\aws-java-sdk-networkmanager\1.12.70\aws-java-sdk-networkmanager-1.12.70.jar;C:\Users\Nghia\.m2\repository\com\amazonaws\aws-java-sdk-computeoptimizer\1.12.70\aws-java-sdk-computeoptimizer-1.12.70.jar;C:\Users\Nghia\.m2\repository\com\amazonaws\aws-java-sdk-accessanalyzer\1.12.70\aws-java-sdk-accessanalyzer-1.12.70.jar;C:\Users\Nghia\.m2\repository\com\amazonaws\aws-java-sdk-schemas\1.12.70\aws-java-sdk-schemas-1.12.70.jar;C:\Users\Nghia\.m2\repository\com\amazonaws\aws-java-sdk-imagebuilder\1.12.70\aws-java-sdk-imagebuilder-1.12.70.jar;C:\Users\Nghia\.m2\repository\com\amazonaws\aws-java-sdk-elasticinference\1.12.70\aws-java-sdk-elasticinference-1.12.70.jar;C:\Users\Nghia\.m2\repository\com\amazonaws\aws-java-sdk-iotsecuretunneling\1.12.70\aws-java-sdk-iotsecuretunneling-1.12.70.jar;C:\Users\Nghia\.m2\repository\com\amazonaws\aws-java-sdk-appconfig\1.12.70\aws-java-sdk-appconfig-1.12.70.jar;C:\Users\Nghia\.m2\repository\com\amazonaws\aws-java-sdk-wafv2\1.12.70\aws-java-sdk-wafv2-1.12.70.jar;C:\Users\Nghia\.m2\repository\com\amazonaws\aws-java-sdk-connectparticipant\1.12.70\aws-java-sdk-connectparticipant-1.12.70.jar;C:\Users\Nghia\.m2\repository\com\amazonaws\aws-java-sdk-migrationhubconfig\1.12.70\aws-java-sdk-migrationhubconfig-1.12.70.jar;C:\Users\Nghia\.m2\repository\com\amazonaws\aws-java-sdk-dataexchange\1.12.70\aws-java-sdk-dataexchange-1.12.70.jar;C:\Users\Nghia\.m2\repository\com\amazonaws\aws-java-sdk-sesv2\1.12.70\aws-java-sdk-sesv2-1.12.70.jar;C:\Users\Nghia\.m2\repository\com\amazonaws\aws-java-sdk-marketplacecatalog\1.12.70\aws-java-sdk-marketplacecatalog-1.12.70.jar;C:\Users\Nghia\.m2\repository\com\amazonaws\aws-java-sdk-ssooidc\1.12.70\aws-java-sdk-ssooidc-1.12.70.jar;C:\Users\Nghia\.m2\repository\com\amazonaws\aws-java-sdk-sso\1.12.70\aws-java-sdk-sso-1.12.70.jar;C:\Users\Nghia\.m2\repository\com\amazonaws\aws-java-sdk-savingsplans\1.12.70\aws-java-sdk-savingsplans-1.12.70.jar;C:\Users\Nghia\.m2\repository\com\amazonaws\aws-java-sdk-codestarnotifications\1.12.70\aws-java-sdk-codestarnotifications-1.12.70.jar;C:\Users\Nghia\.m2\repository\com\amazonaws\aws-java-sdk-workmailmessageflow\1.12.70\aws-java-sdk-workmailmessageflow-1.12.70.jar;C:\Users\Nghia\.m2\repository\com\amazonaws\aws-java-sdk-qldbsession\1.12.70\aws-java-sdk-qldbsession-1.12.70.jar;C:\Users\Nghia\.m2\repository\com\amazonaws\aws-java-sdk-qldb\1.12.70\aws-java-sdk-qldb-1.12.70.jar;C:\Users\Nghia\.m2\repository\com\amazonaws\aws-java-sdk-forecastquery\1.12.70\aws-java-sdk-forecastquery-1.12.70.jar;C:\Users\Nghia\.m2\repository\com\amazonaws\aws-java-sdk-forecast\1.12.70\aws-java-sdk-forecast-1.12.70.jar;C:\Users\Nghia\.m2\repository\com\amazonaws\aws-java-sdk-lakeformation\1.12.70\aws-java-sdk-lakeformation-1.12.70.jar;C:\Users\Nghia\.m2\repository\com\amazonaws\aws-java-sdk-eventbridge\1.12.70\aws-java-sdk-eventbridge-1.12.70.jar;C:\Users\Nghia\.m2\repository\com\amazonaws\aws-java-sdk-ec2instanceconnect\1.12.70\aws-java-sdk-ec2instanceconnect-1.12.70.jar;C:\Users\Nghia\.m2\repository\com\amazonaws\aws-java-sdk-applicationinsights\1.12.70\aws-java-sdk-applicationinsights-1.12.70.jar;C:\Users\Nghia\.m2\repository\com\amazonaws\aws-java-sdk-servicequotas\1.12.70\aws-java-sdk-servicequotas-1.12.70.jar;C:\Users\Nghia\.m2\repository\com\amazonaws\aws-java-sdk-personalizeevents\1.12.70\aws-java-sdk-personalizeevents-1.12.70.jar;C:\Users\Nghia\.m2\repository\com\amazonaws\aws-java-sdk-personalize\1.12.70\aws-java-sdk-personalize-1.12.70.jar;C:\Users\Nghia\.m2\repository\com\amazonaws\aws-java-sdk-personalizeruntime\1.12.70\aws-java-sdk-personalizeruntime-1.12.70.jar;C:\Users\Nghia\.m2\repository\com\amazonaws\aws-java-sdk-ioteventsdata\1.12.70\aws-java-sdk-ioteventsdata-1.12.70.jar;C:\Users\Nghia\.m2\repository\com\amazonaws\aws-java-sdk-iotevents\1.12.70\aws-java-sdk-iotevents-1.12.70.jar;C:\Users\Nghia\.m2\repository\com\amazonaws\aws-java-sdk-iotthingsgraph\1.12.70\aws-java-sdk-iotthingsgraph-1.12.70.jar;C:\Users\Nghia\.m2\repository\com\amazonaws\aws-java-sdk-groundstation\1.12.70\aws-java-sdk-groundstation-1.12.70.jar;C:\Users\Nghia\.m2\repository\com\amazonaws\aws-java-sdk-mediapackagevod\1.12.70\aws-java-sdk-mediapackagevod-1.12.70.jar;C:\Users\Nghia\.m2\repository\com\amazonaws\aws-java-sdk-managedblockchain\1.12.70\aws-java-sdk-managedblockchain-1.12.70.jar;C:\Users\Nghia\.m2\repository\com\amazonaws\aws-java-sdk-textract\1.12.70\aws-java-sdk-textract-1.12.70.jar;C:\Users\Nghia\.m2\repository\com\amazonaws\aws-java-sdk-worklink\1.12.70\aws-java-sdk-worklink-1.12.70.jar;C:\Users\Nghia\.m2\repository\com\amazonaws\aws-java-sdk-backup\1.12.70\aws-java-sdk-backup-1.12.70.jar;C:\Users\Nghia\.m2\repository\com\amazonaws\aws-java-sdk-docdb\1.12.70\aws-java-sdk-docdb-1.12.70.jar;C:\Users\Nghia\.m2\repository\com\amazonaws\aws-java-sdk-apigatewayv2\1.12.70\aws-java-sdk-apigatewayv2-1.12.70.jar;C:\Users\Nghia\.m2\repository\com\amazonaws\aws-java-sdk-apigatewaymanagementapi\1.12.70\aws-java-sdk-apigatewaymanagementapi-1.12.70.jar;C:\Users\Nghia\.m2\repository\com\amazonaws\aws-java-sdk-kafka\1.12.70\aws-java-sdk-kafka-1.12.70.jar;C:\Users\Nghia\.m2\repository\com\amazonaws\aws-java-sdk-appmesh\1.12.70\aws-java-sdk-appmesh-1.12.70.jar;C:\Users\Nghia\.m2\repository\com\amazonaws\aws-java-sdk-licensemanager\1.12.70\aws-java-sdk-licensemanager-1.12.70.jar;C:\Users\Nghia\.m2\repository\com\amazonaws\aws-java-sdk-securityhub\1.12.70\aws-java-sdk-securityhub-1.12.70.jar;C:\Users\Nghia\.m2\repository\com\amazonaws\aws-java-sdk-fsx\1.12.70\aws-java-sdk-fsx-1.12.70.jar;C:\Users\Nghia\.m2\repository\com\amazonaws\aws-java-sdk-mediaconnect\1.12.70\aws-java-sdk-mediaconnect-1.12.70.jar;C:\Users\Nghia\.m2\repository\com\amazonaws\aws-java-sdk-kinesisanalyticsv2\1.12.70\aws-java-sdk-kinesisanalyticsv2-1.12.70.jar;C:\Users\Nghia\.m2\repository\com\amazonaws\aws-java-sdk-comprehendmedical\1.12.70\aws-java-sdk-comprehendmedical-1.12.70.jar;C:\Users\Nghia\.m2\repository\com\amazonaws\aws-java-sdk-globalaccelerator\1.12.70\aws-java-sdk-globalaccelerator-1.12.70.jar;C:\Users\Nghia\.m2\repository\com\amazonaws\aws-java-sdk-transfer\1.12.70\aws-java-sdk-transfer-1.12.70.jar;C:\Users\Nghia\.m2\repository\com\amazonaws\aws-java-sdk-datasync\1.12.70\aws-java-sdk-datasync-1.12.70.jar;C:\Users\Nghia\.m2\repository\com\amazonaws\aws-java-sdk-robomaker\1.12.70\aws-java-sdk-robomaker-1.12.70.jar;C:\Users\Nghia\.m2\repository\com\amazonaws\aws-java-sdk-amplify\1.12.70\aws-java-sdk-amplify-1.12.70.jar;C:\Users\Nghia\.m2\repository\com\amazonaws\aws-java-sdk-quicksight\1.12.70\aws-java-sdk-quicksight-1.12.70.jar;C:\Users\Nghia\.m2\repository\com\amazonaws\aws-java-sdk-rdsdata\1.12.70\aws-java-sdk-rdsdata-1.12.70.jar;C:\Users\Nghia\.m2\repository\com\amazonaws\aws-java-sdk-route53resolver\1.12.70\aws-java-sdk-route53resolver-1.12.70.jar;C:\Users\Nghia\.m2\repository\com\amazonaws\aws-java-sdk-ram\1.12.70\aws-java-sdk-ram-1.12.70.jar;C:\Users\Nghia\.m2\repository\com\amazonaws\aws-java-sdk-s3control\1.12.70\aws-java-sdk-s3control-1.12.70.jar;C:\Users\Nghia\.m2\repository\com\amazonaws\aws-java-sdk-pinpointsmsvoice\1.12.70\aws-java-sdk-pinpointsmsvoice-1.12.70.jar;C:\Users\Nghia\.m2\repository\com\amazonaws\aws-java-sdk-pinpointemail\1.12.70\aws-java-sdk-pinpointemail-1.12.70.jar;C:\Users\Nghia\.m2\repository\com\amazonaws\aws-java-sdk-chime\1.12.70\aws-java-sdk-chime-1.12.70.jar;C:\Users\Nghia\.m2\repository\com\amazonaws\aws-java-sdk-signer\1.12.70\aws-java-sdk-signer-1.12.70.jar;C:\Users\Nghia\.m2\repository\com\amazonaws\aws-java-sdk-dlm\1.12.70\aws-java-sdk-dlm-1.12.70.jar;C:\Users\Nghia\.m2\repository\com\amazonaws\aws-java-sdk-macie\1.12.70\aws-java-sdk-macie-1.12.70.jar;C:\Users\Nghia\.m2\repository\com\amazonaws\aws-java-sdk-eks\1.12.70\aws-java-sdk-eks-1.12.70.jar;C:\Users\Nghia\.m2\repository\com\amazonaws\aws-java-sdk-mediatailor\1.12.70\aws-java-sdk-mediatailor-1.12.70.jar;C:\Users\Nghia\.m2\repository\com\amazonaws\aws-java-sdk-neptune\1.12.70\aws-java-sdk-neptune-1.12.70.jar;C:\Users\Nghia\.m2\repository\com\amazonaws\aws-java-sdk-pi\1.12.70\aws-java-sdk-pi-1.12.70.jar;C:\Users\Nghia\.m2\repository\com\amazonaws\aws-java-sdk-iot1clickprojects\1.12.70\aws-java-sdk-iot1clickprojects-1.12.70.jar;C:\Users\Nghia\.m2\repository\com\amazonaws\aws-java-sdk-iot1clickdevices\1.12.70\aws-java-sdk-iot1clickdevices-1.12.70.jar;C:\Users\Nghia\.m2\repository\com\amazonaws\aws-java-sdk-iotanalytics\1.12.70\aws-java-sdk-iotanalytics-1.12.70.jar;C:\Users\Nghia\.m2\repository\com\amazonaws\aws-java-sdk-acmpca\1.12.70\aws-java-sdk-acmpca-1.12.70.jar;C:\Users\Nghia\.m2\repository\com\amazonaws\aws-java-sdk-secretsmanager\1.12.70\aws-java-sdk-secretsmanager-1.12.70.jar;C:\Users\Nghia\.m2\repository\com\amazonaws\aws-java-sdk-fms\1.12.70\aws-java-sdk-fms-1.12.70.jar;C:\Users\Nghia\.m2\repository\com\amazonaws\aws-java-sdk-connect\1.12.70\aws-java-sdk-connect-1.12.70.jar;C:\Users\Nghia\.m2\repository\com\amazonaws\aws-java-sdk-transcribe\1.12.70\aws-java-sdk-transcribe-1.12.70.jar;C:\Users\Nghia\.m2\repository\com\amazonaws\aws-java-sdk-autoscalingplans\1.12.70\aws-java-sdk-autoscalingplans-1.12.70.jar;C:\Users\Nghia\.m2\repository\com\amazonaws\aws-java-sdk-workmail\1.12.70\aws-java-sdk-workmail-1.12.70.jar;C:\Users\Nghia\.m2\repository\com\amazonaws\aws-java-sdk-servicediscovery\1.12.70\aws-java-sdk-servicediscovery-1.12.70.jar;C:\Users\Nghia\.m2\repository\com\amazonaws\aws-java-sdk-cloud9\1.12.70\aws-java-sdk-cloud9-1.12.70.jar;C:\Users\Nghia\.m2\repository\com\amazonaws\aws-java-sdk-serverlessapplicationrepository\1.12.70\aws-java-sdk-serverlessapplicationrepository-1.12.70.jar;C:\Users\Nghia\.m2\repository\com\amazonaws\aws-java-sdk-alexaforbusiness\1.12.70\aws-java-sdk-alexaforbusiness-1.12.70.jar;C:\Users\Nghia\.m2\repository\com\amazonaws\aws-java-sdk-resourcegroups\1.12.70\aws-java-sdk-resourcegroups-1.12.70.jar;C:\Users\Nghia\.m2\repository\com\amazonaws\aws-java-sdk-comprehend\1.12.70\aws-java-sdk-comprehend-1.12.70.jar;C:\Users\Nghia\.m2\repository\com\amazonaws\aws-java-sdk-translate\1.12.70\aws-java-sdk-translate-1.12.70.jar;C:\Users\Nghia\.m2\repository\com\amazonaws\aws-java-sdk-sagemaker\1.12.70\aws-java-sdk-sagemaker-1.12.70.jar;C:\Users\Nghia\.m2\repository\com\amazonaws\aws-java-sdk-iotjobsdataplane\1.12.70\aws-java-sdk-iotjobsdataplane-1.12.70.jar;C:\Users\Nghia\.m2\repository\com\amazonaws\aws-java-sdk-sagemakerruntime\1.12.70\aws-java-sdk-sagemakerruntime-1.12.70.jar;C:\Users\Nghia\.m2\repository\com\amazonaws\aws-java-sdk-kinesisvideo\1.12.70\aws-java-sdk-kinesisvideo-1.12.70.jar;C:\Users\Nghia\.m2\repository\io\netty\netty-codec-http\4.1.69.Final\netty-codec-http-4.1.69.Final.jar;C:\Users\Nghia\.m2\repository\io\netty\netty-common\4.1.69.Final\netty-common-4.1.69.Final.jar;C:\Users\Nghia\.m2\repository\io\netty\netty-buffer\4.1.69.Final\netty-buffer-4.1.69.Final.jar;C:\Users\Nghia\.m2\repository\io\netty\netty-transport\4.1.69.Final\netty-transport-4.1.69.Final.jar;C:\Users\Nghia\.m2\repository\io\netty\netty-codec\4.1.69.Final\netty-codec-4.1.69.Final.jar;C:\Users\Nghia\.m2\repository\io\netty\netty-handler\4.1.69.Final\netty-handler-4.1.69.Final.jar;C:\Users\Nghia\.m2\repository\io\netty\netty-resolver\4.1.69.Final\netty-resolver-4.1.69.Final.jar;C:\Users\Nghia\.m2\repository\com\amazonaws\aws-java-sdk-appsync\1.12.70\aws-java-sdk-appsync-1.12.70.jar;C:\Users\Nghia\.m2\repository\com\amazonaws\aws-java-sdk-guardduty\1.12.70\aws-java-sdk-guardduty-1.12.70.jar;C:\Users\Nghia\.m2\repository\com\amazonaws\aws-java-sdk-mq\1.12.70\aws-java-sdk-mq-1.12.70.jar;C:\Users\Nghia\.m2\repository\com\amazonaws\aws-java-sdk-mediaconvert\1.12.70\aws-java-sdk-mediaconvert-1.12.70.jar;C:\Users\Nghia\.m2\repository\com\amazonaws\aws-java-sdk-mediastore\1.12.70\aws-java-sdk-mediastore-1.12.70.jar;C:\Users\Nghia\.m2\repository\com\amazonaws\aws-java-sdk-mediastoredata\1.12.70\aws-java-sdk-mediastoredata-1.12.70.jar;C:\Users\Nghia\.m2\repository\com\amazonaws\aws-java-sdk-medialive\1.12.70\aws-java-sdk-medialive-1.12.70.jar;C:\Users\Nghia\.m2\repository\com\amazonaws\aws-java-sdk-mediapackage\1.12.70\aws-java-sdk-mediapackage-1.12.70.jar;C:\Users\Nghia\.m2\repository\com\amazonaws\aws-java-sdk-costexplorer\1.12.70\aws-java-sdk-costexplorer-1.12.70.jar;C:\Users\Nghia\.m2\repository\com\amazonaws\aws-java-sdk-pricing\1.12.70\aws-java-sdk-pricing-1.12.70.jar;C:\Users\Nghia\.m2\repository\com\amazonaws\aws-java-sdk-mobile\1.12.70\aws-java-sdk-mobile-1.12.70.jar;C:\Users\Nghia\.m2\repository\com\amazonaws\aws-java-sdk-cloudhsmv2\1.12.70\aws-java-sdk-cloudhsmv2-1.12.70.jar;C:\Users\Nghia\.m2\repository\com\amazonaws\aws-java-sdk-glue\1.12.70\aws-java-sdk-glue-1.12.70.jar;C:\Users\Nghia\.m2\repository\com\amazonaws\aws-java-sdk-migrationhub\1.12.70\aws-java-sdk-migrationhub-1.12.70.jar;C:\Users\Nghia\.m2\repository\com\amazonaws\aws-java-sdk-dax\1.12.70\aws-java-sdk-dax-1.12.70.jar;C:\Users\Nghia\.m2\repository\com\amazonaws\aws-java-sdk-greengrass\1.12.70\aws-java-sdk-greengrass-1.12.70.jar;C:\Users\Nghia\.m2\repository\com\amazonaws\aws-java-sdk-athena\1.12.70\aws-java-sdk-athena-1.12.70.jar;C:\Users\Nghia\.m2\repository\com\amazonaws\aws-java-sdk-marketplaceentitlement\1.12.70\aws-java-sdk-marketplaceentitlement-1.12.70.jar;C:\Users\Nghia\.m2\repository\com\amazonaws\aws-java-sdk-codestar\1.12.70\aws-java-sdk-codestar-1.12.70.jar;C:\Users\Nghia\.m2\repository\com\amazonaws\aws-java-sdk-lexmodelbuilding\1.12.70\aws-java-sdk-lexmodelbuilding-1.12.70.jar;C:\Users\Nghia\.m2\repository\com\amazonaws\aws-java-sdk-resourcegroupstaggingapi\1.12.70\aws-java-sdk-resourcegroupstaggingapi-1.12.70.jar;C:\Users\Nghia\.m2\repository\com\amazonaws\aws-java-sdk-pinpoint\1.12.70\aws-java-sdk-pinpoint-1.12.70.jar;C:\Users\Nghia\.m2\repository\com\amazonaws\aws-java-sdk-xray\1.12.70\aws-java-sdk-xray-1.12.70.jar;C:\Users\Nghia\.m2\repository\com\amazonaws\aws-java-sdk-opsworkscm\1.12.70\aws-java-sdk-opsworkscm-1.12.70.jar;C:\Users\Nghia\.m2\repository\com\amazonaws\aws-java-sdk-support\1.12.70\aws-java-sdk-support-1.12.70.jar;C:\Users\Nghia\.m2\repository\com\amazonaws\aws-java-sdk-simpledb\1.12.70\aws-java-sdk-simpledb-1.12.70.jar;C:\Users\Nghia\.m2\repository\com\amazonaws\aws-java-sdk-servicecatalog\1.12.70\aws-java-sdk-servicecatalog-1.12.70.jar;C:\Users\Nghia\.m2\repository\com\amazonaws\aws-java-sdk-servermigration\1.12.70\aws-java-sdk-servermigration-1.12.70.jar;C:\Users\Nghia\.m2\repository\com\amazonaws\aws-java-sdk-simpleworkflow\1.12.70\aws-java-sdk-simpleworkflow-1.12.70.jar;C:\Users\Nghia\.m2\repository\com\amazonaws\aws-java-sdk-storagegateway\1.12.70\aws-java-sdk-storagegateway-1.12.70.jar;C:\Users\Nghia\.m2\repository\com\amazonaws\aws-java-sdk-route53\1.12.70\aws-java-sdk-route53-1.12.70.jar;C:\Users\Nghia\.m2\repository\com\amazonaws\aws-java-sdk-s3\1.12.70\aws-java-sdk-s3-1.12.70.jar;C:\Users\Nghia\.m2\repository\com\amazonaws\aws-java-sdk-importexport\1.12.70\aws-java-sdk-importexport-1.12.70.jar;C:\Users\Nghia\.m2\repository\com\amazonaws\aws-java-sdk-sts\1.12.70\aws-java-sdk-sts-1.12.70.jar;C:\Users\Nghia\.m2\repository\com\amazonaws\aws-java-sdk-sqs\1.12.70\aws-java-sdk-sqs-1.12.70.jar;C:\Users\Nghia\.m2\repository\com\amazonaws\aws-java-sdk-rds\1.12.70\aws-java-sdk-rds-1.12.70.jar;C:\Users\Nghia\.m2\repository\com\amazonaws\aws-java-sdk-redshift\1.12.70\aws-java-sdk-redshift-1.12.70.jar;C:\Users\Nghia\.m2\repository\com\amazonaws\aws-java-sdk-elasticbeanstalk\1.12.70\aws-java-sdk-elasticbeanstalk-1.12.70.jar;C:\Users\Nghia\.m2\repository\com\amazonaws\aws-java-sdk-glacier\1.12.70\aws-java-sdk-glacier-1.12.70.jar;C:\Users\Nghia\.m2\repository\com\amazonaws\aws-java-sdk-iam\1.12.70\aws-java-sdk-iam-1.12.70.jar;C:\Users\Nghia\.m2\repository\com\amazonaws\aws-java-sdk-datapipeline\1.12.70\aws-java-sdk-datapipeline-1.12.70.jar;C:\Users\Nghia\.m2\repository\com\amazonaws\aws-java-sdk-elasticloadbalancing\1.12.70\aws-java-sdk-elasticloadbalancing-1.12.70.jar;C:\Users\Nghia\.m2\repository\com\amazonaws\aws-java-sdk-elasticloadbalancingv2\1.12.70\aws-java-sdk-elasticloadbalancingv2-1.12.70.jar;C:\Users\Nghia\.m2\repository\com\amazonaws\aws-java-sdk-emr\1.12.70\aws-java-sdk-emr-1.12.70.jar;C:\Users\Nghia\.m2\repository\com\amazonaws\aws-java-sdk-elasticache\1.12.70\aws-java-sdk-elasticache-1.12.70.jar;C:\Users\Nghia\.m2\repository\com\amazonaws\aws-java-sdk-elastictranscoder\1.12.70\aws-java-sdk-elastictranscoder-1.12.70.jar;C:\Users\Nghia\.m2\repository\com\amazonaws\aws-java-sdk-ec2\1.12.70\aws-java-sdk-ec2-1.12.70.jar;C:\Users\Nghia\.m2\repository\com\amazonaws\aws-java-sdk-dynamodb\1.12.70\aws-java-sdk-dynamodb-1.12.70.jar;C:\Users\Nghia\.m2\repository\com\amazonaws\aws-java-sdk-sns\1.12.70\aws-java-sdk-sns-1.12.70.jar;C:\Users\Nghia\.m2\repository\com\amazonaws\aws-java-sdk-budgets\1.12.70\aws-java-sdk-budgets-1.12.70.jar;C:\Users\Nghia\.m2\repository\com\amazonaws\aws-java-sdk-cloudtrail\1.12.70\aws-java-sdk-cloudtrail-1.12.70.jar;C:\Users\Nghia\.m2\repository\com\amazonaws\aws-java-sdk-cloudwatch\1.12.70\aws-java-sdk-cloudwatch-1.12.70.jar;C:\Users\Nghia\.m2\repository\com\amazonaws\aws-java-sdk-logs\1.12.70\aws-java-sdk-logs-1.12.70.jar;C:\Users\Nghia\.m2\repository\com\amazonaws\aws-java-sdk-events\1.12.70\aws-java-sdk-events-1.12.70.jar;C:\Users\Nghia\.m2\repository\com\amazonaws\aws-java-sdk-cognitoidentity\1.12.70\aws-java-sdk-cognitoidentity-1.12.70.jar;C:\Users\Nghia\.m2\repository\com\amazonaws\aws-java-sdk-cognitosync\1.12.70\aws-java-sdk-cognitosync-1.12.70.jar;C:\Users\Nghia\.m2\repository\com\amazonaws\aws-java-sdk-directconnect\1.12.70\aws-java-sdk-directconnect-1.12.70.jar;C:\Users\Nghia\.m2\repository\com\amazonaws\aws-java-sdk-cloudformation\1.12.70\aws-java-sdk-cloudformation-1.12.70.jar;C:\Users\Nghia\.m2\repository\com\amazonaws\aws-java-sdk-cloudfront\1.12.70\aws-java-sdk-cloudfront-1.12.70.jar;C:\Users\Nghia\.m2\repository\com\amazonaws\aws-java-sdk-clouddirectory\1.12.70\aws-java-sdk-clouddirectory-1.12.70.jar;C:\Users\Nghia\.m2\repository\com\amazonaws\aws-java-sdk-kinesis\1.12.70\aws-java-sdk-kinesis-1.12.70.jar;C:\Users\Nghia\.m2\repository\com\amazonaws\aws-java-sdk-opsworks\1.12.70\aws-java-sdk-opsworks-1.12.70.jar;C:\Users\Nghia\.m2\repository\com\amazonaws\aws-java-sdk-ses\1.12.70\aws-java-sdk-ses-1.12.70.jar;C:\Users\Nghia\.m2\repository\com\amazonaws\aws-java-sdk-autoscaling\1.12.70\aws-java-sdk-autoscaling-1.12.70.jar;C:\Users\Nghia\.m2\repository\com\amazonaws\aws-java-sdk-cloudsearch\1.12.70\aws-java-sdk-cloudsearch-1.12.70.jar;C:\Users\Nghia\.m2\repository\com\amazonaws\aws-java-sdk-cloudwatchmetrics\1.12.70\aws-java-sdk-cloudwatchmetrics-1.12.70.jar;C:\Users\Nghia\.m2\repository\com\amazonaws\aws-java-sdk-codedeploy\1.12.70\aws-java-sdk-codedeploy-1.12.70.jar;C:\Users\Nghia\.m2\repository\com\amazonaws\aws-java-sdk-codepipeline\1.12.70\aws-java-sdk-codepipeline-1.12.70.jar;C:\Users\Nghia\.m2\repository\com\amazonaws\aws-java-sdk-kms\1.12.70\aws-java-sdk-kms-1.12.70.jar;C:\Users\Nghia\.m2\repository\com\amazonaws\aws-java-sdk-config\1.12.70\aws-java-sdk-config-1.12.70.jar;C:\Users\Nghia\.m2\repository\com\amazonaws\aws-java-sdk-lambda\1.12.70\aws-java-sdk-lambda-1.12.70.jar;C:\Users\Nghia\.m2\repository\com\amazonaws\aws-java-sdk-ecs\1.12.70\aws-java-sdk-ecs-1.12.70.jar;C:\Users\Nghia\.m2\repository\com\amazonaws\aws-java-sdk-ecr\1.12.70\aws-java-sdk-ecr-1.12.70.jar;C:\Users\Nghia\.m2\repository\com\amazonaws\aws-java-sdk-cloudhsm\1.12.70\aws-java-sdk-cloudhsm-1.12.70.jar;C:\Users\Nghia\.m2\repository\com\amazonaws\aws-java-sdk-ssm\1.12.70\aws-java-sdk-ssm-1.12.70.jar;C:\Users\Nghia\.m2\repository\com\amazonaws\aws-java-sdk-workspaces\1.12.70\aws-java-sdk-workspaces-1.12.70.jar;C:\Users\Nghia\.m2\repository\com\amazonaws\aws-java-sdk-machinelearning\1.12.70\aws-java-sdk-machinelearning-1.12.70.jar;C:\Users\Nghia\.m2\repository\com\amazonaws\aws-java-sdk-directory\1.12.70\aws-java-sdk-directory-1.12.70.jar;C:\Users\Nghia\.m2\repository\com\amazonaws\aws-java-sdk-efs\1.12.70\aws-java-sdk-efs-1.12.70.jar;C:\Users\Nghia\.m2\repository\com\amazonaws\aws-java-sdk-codecommit\1.12.70\aws-java-sdk-codecommit-1.12.70.jar;C:\Users\Nghia\.m2\repository\com\amazonaws\aws-java-sdk-devicefarm\1.12.70\aws-java-sdk-devicefarm-1.12.70.jar;C:\Users\Nghia\.m2\repository\com\amazonaws\aws-java-sdk-elasticsearch\1.12.70\aws-java-sdk-elasticsearch-1.12.70.jar;C:\Users\Nghia\.m2\repository\com\amazonaws\aws-java-sdk-waf\1.12.70\aws-java-sdk-waf-1.12.70.jar;C:\Users\Nghia\.m2\repository\com\amazonaws\aws-java-sdk-marketplacecommerceanalytics\1.12.70\aws-java-sdk-marketplacecommerceanalytics-1.12.70.jar;C:\Users\Nghia\.m2\repository\com\amazonaws\aws-java-sdk-inspector\1.12.70\aws-java-sdk-inspector-1.12.70.jar;C:\Users\Nghia\.m2\repository\com\amazonaws\aws-java-sdk-iot\1.12.70\aws-java-sdk-iot-1.12.70.jar;C:\Users\Nghia\.m2\repository\com\amazonaws\aws-java-sdk-api-gateway\1.12.70\aws-java-sdk-api-gateway-1.12.70.jar;C:\Users\Nghia\.m2\repository\com\amazonaws\aws-java-sdk-acm\1.12.70\aws-java-sdk-acm-1.12.70.jar;C:\Users\Nghia\.m2\repository\com\amazonaws\aws-java-sdk-gamelift\1.12.70\aws-java-sdk-gamelift-1.12.70.jar;C:\Users\Nghia\.m2\repository\com\amazonaws\aws-java-sdk-dms\1.12.70\aws-java-sdk-dms-1.12.70.jar;C:\Users\Nghia\.m2\repository\com\amazonaws\aws-java-sdk-marketplacemeteringservice\1.12.70\aws-java-sdk-marketplacemeteringservice-1.12.70.jar;C:\Users\Nghia\.m2\repository\com\amazonaws\aws-java-sdk-cognitoidp\1.12.70\aws-java-sdk-cognitoidp-1.12.70.jar;C:\Users\Nghia\.m2\repository\com\amazonaws\aws-java-sdk-discovery\1.12.70\aws-java-sdk-discovery-1.12.70.jar;C:\Users\Nghia\.m2\repository\com\amazonaws\aws-java-sdk-applicationautoscaling\1.12.70\aws-java-sdk-applicationautoscaling-1.12.70.jar;C:\Users\Nghia\.m2\repository\com\amazonaws\aws-java-sdk-snowball\1.12.70\aws-java-sdk-snowball-1.12.70.jar;C:\Users\Nghia\.m2\repository\com\amazonaws\aws-java-sdk-rekognition\1.12.70\aws-java-sdk-rekognition-1.12.70.jar;C:\Users\Nghia\.m2\repository\com\amazonaws\aws-java-sdk-polly\1.12.70\aws-java-sdk-polly-1.12.70.jar;C:\Users\Nghia\.m2\repository\com\amazonaws\aws-java-sdk-lightsail\1.12.70\aws-java-sdk-lightsail-1.12.70.jar;C:\Users\Nghia\.m2\repository\com\amazonaws\aws-java-sdk-stepfunctions\1.12.70\aws-java-sdk-stepfunctions-1.12.70.jar;C:\Users\Nghia\.m2\repository\com\amazonaws\aws-java-sdk-health\1.12.70\aws-java-sdk-health-1.12.70.jar;C:\Users\Nghia\.m2\repository\com\amazonaws\aws-java-sdk-costandusagereport\1.12.70\aws-java-sdk-costandusagereport-1.12.70.jar;C:\Users\Nghia\.m2\repository\com\amazonaws\aws-java-sdk-codebuild\1.12.70\aws-java-sdk-codebuild-1.12.70.jar;C:\Users\Nghia\.m2\repository\com\amazonaws\aws-java-sdk-appstream\1.12.70\aws-java-sdk-appstream-1.12.70.jar;C:\Users\Nghia\.m2\repository\com\amazonaws\aws-java-sdk-shield\1.12.70\aws-java-sdk-shield-1.12.70.jar;C:\Users\Nghia\.m2\repository\com\amazonaws\aws-java-sdk-batch\1.12.70\aws-java-sdk-batch-1.12.70.jar;C:\Users\Nghia\.m2\repository\com\amazonaws\aws-java-sdk-lex\1.12.70\aws-java-sdk-lex-1.12.70.jar;C:\Users\Nghia\.m2\repository\com\amazonaws\aws-java-sdk-mechanicalturkrequester\1.12.70\aws-java-sdk-mechanicalturkrequester-1.12.70.jar;C:\Users\Nghia\.m2\repository\com\amazonaws\aws-java-sdk-organizations\1.12.70\aws-java-sdk-organizations-1.12.70.jar;C:\Users\Nghia\.m2\repository\com\amazonaws\aws-java-sdk-workdocs\1.12.70\aws-java-sdk-workdocs-1.12.70.jar;C:\Users\Nghia\.m2\repository\com\amazonaws\aws-java-sdk-core\1.12.70\aws-java-sdk-core-1.12.70.jar;C:\Users\Nghia\.m2\repository\commons-logging\commons-logging\1.1.3\commons-logging-1.1.3.jar;C:\Users\Nghia\.m2\repository\commons-codec\commons-codec\1.15\commons-codec-1.15.jar;C:\Users\Nghia\.m2\repository\org\apache\httpcomponents\httpclient\4.5.13\httpclient-4.5.13.jar;C:\Users\Nghia\.m2\repository\org\apache\httpcomponents\httpcore\4.4.14\httpcore-4.4.14.jar;C:\Users\Nghia\.m2\repository\software\amazon\ion\ion-java\1.0.2\ion-java-1.0.2.jar;C:\Users\Nghia\.m2\repository\com\fasterxml\jackson\dataformat\jackson-dataformat-cbor\2.12.5\jackson-dataformat-cbor-2.12.5.jar;C:\Users\Nghia\.m2\repository\joda-time\joda-time\2.8.1\joda-time-2.8.1.jar;C:\Users\Nghia\.m2\repository\com\amazonaws\aws-java-sdk-models\1.12.70\aws-java-sdk-models-1.12.70.jar;C:\Users\Nghia\.m2\repository\com\amazonaws\aws-java-sdk-swf-libraries\1.11.22\aws-java-sdk-swf-libraries-1.11.22.jar;"/>
    <property name="sun.cpu.endian" value="little"/>
    <property name="user.home" value="C:\Users\Nghia"/>
    <property name="user.language" value="en"/>
    <property name="java.specification.vendor" value="Oracle Corporation"/>
    <property name="java.version.date" value="2021-07-20"/>
    <property name="java.home" value="C:\Program Files\Java\jdk-11.0.12"/>
    <property name="file.separator" value="\"/>
    <property name="basedir" value="E:\InformationTechnology\Nam_4Ky_1\DienToanDamMay\20211119_Project\cloudcomputing\backend"/>
    <property name="java.vm.compressedOopsMode" value="Zero based"/>
    <property name="line.separator" value="&#10;"/>
    <property name="java.specification.name" value="Java Platform API Specification"/>
    <property name="java.vm.specification.vendor" value="Oracle Corporation"/>
    <property name="java.awt.graphicsenv" value="sun.awt.Win32GraphicsEnvironment"/>
    <property name="surefire.real.class.path" value="C:\Users\Nghia\AppData\Local\Temp\surefire2774599415147042223\surefirebooter3235095968768772791.jar"/>
    <property name="user.script" value=""/>
    <property name="sun.management.compiler" value="HotSpot 64-Bit Tiered Compilers"/>
    <property name="java.runtime.version" value="11.0.12+8-LTS-237"/>
    <property name="user.name" value="Nghia"/>
    <property name="path.separator" value=";"/>
    <property name="os.version" value="10.0"/>
    <property name="java.runtime.name" value="Java(TM) SE Runtime Environment"/>
    <property name="file.encoding" value="Cp1252"/>
    <property name="java.vm.name" value="Java HotSpot(TM) 64-Bit Server VM"/>
    <property name="java.vendor.version" value="18.9"/>
    <property name="localRepository" value="C:\Users\Nghia\.m2\repository"/>
    <property name="java.vendor.url.bug" value="https://bugreport.java.com/bugreport/"/>
    <property name="java.io.tmpdir" value="C:\Users\Nghia\AppData\Local\Temp\"/>
    <property name="java.version" value="11.0.12"/>
    <property name="user.dir" value="E:\InformationTechnology\Nam_4Ky_1\DienToanDamMay\20211119_Project\cloudcomputing\backend"/>
    <property name="os.arch" value="amd64"/>
    <property name="java.vm.specification.name" value="Java Virtual Machine Specification"/>
    <property name="java.awt.printerjob" value="sun.awt.windows.WPrinterJob"/>
    <property name="sun.os.patch.level" value=""/>
    <property name="java.library.path" value="C:\Program Files\Java\jdk-11.0.12\bin;C:\Windows\Sun\Java\bin;C:\Windows\system32;C:\Windows;C:\Users\Nghia\bin;C:\Program Files\Git\mingw64\bin;C:\Program Files\Git\usr\local\bin;C:\Program Files\Git\usr\bin;C:\Program Files\Git\usr\bin;C:\Program Files\Git\mingw64\bin;C:\Program Files\Git\usr\bin;C:\Users\Nghia\bin;C:\Program Files\Java\jdk-11.0.12\bin;C:\Program Files\Common Files\Oracle\Java\javapath;C:\Windows\system32;C:\Windows;C:\Windows\System32\Wbem;C:\Windows\System32\WindowsPowerShell\v1.0;C:\Windows\System32\OpenSSH;C:\Program Files\Git\cmd;C:\Program Files\Java\apache-maven-3.6.0\bin;C:\Program Files\Docker\Docker\resources\bin;C:\ProgramData\DockerDesktop\version-bin;C:\Program Files\nodejs;C:\Program Files\Amazon\AWSCLI\bin;C:\Program Files\MySQL\MySQL Shell 8.0\bin;C:\Users\Nghia\AppData\Local\Microsoft\WindowsApps;C:\Users\Nghia\AppData\Local\Programs\Microsoft VS Code\bin;C:\Program Files\JetBrains\IntelliJ IDEA 2020.2.3\bin;C:\Users\Nghia\AppData\Roaming\npm;C:\Program Files\dotnet;C:\Program Files\Microsoft SQL Server\130\Tools\Binn;C:\Program Files\Microsoft SQL Server\Client SDK\ODBC\170\Tools\Binn;C:\Program Files\Redis;C:\Program Files\MySQL\MySQL Shell 8.0\bin;C:\Users\Nghia\AppData\Local\Microsoft\WindowsApps;C:\Users\Nghia\AppData\Local\Programs\Microsoft VS Code\bin;C:\Program Files\JetBrains\IntelliJ IDEA 2020.2.3\bin;C:\Users\Nghia\AppData\Roaming\npm;C:\Users\Nghia\.dotnet\tools;C:\Program Files\Git\usr\bin\vendor_perl;C:\Program Files\Git\usr\bin\core_perl;."/>
    <property name="java.vendor" value="Oracle Corporation"/>
    <property name="java.vm.info" value="mixed mode"/>
    <property name="java.vm.version" value="11.0.12+8-LTS-237"/>
    <property name="sun.io.unicode.encoding" value="UnicodeLittle"/>
    <property name="java.class.version" value="55.0"/>
  </properties>
  <testcase name="contextLoads" classname="com.cloudcomputing.backend.BackendApplicationTests" time="0.125"/>
</testsuite>